# time: 0.8 s
#
# Output by HydroCode1D on 2018:02:22:17:32:02
# https://github.com/bwvdnbro/HydroCode1D
# Git version: 737a975
# Configuration:
#  rmin_in_m: 0.
#  rmax_in_m: 2.
#  ncell: 2000
#  gamma: 5./3.
#  maxtime_in_s: 0.8
#  number_of_snaps: 10
#  eos: EOS_IDEAL
#  boundaries: BOUNDARIES_SPHERICAL
#  isothermal_temperature_in_k: 1.e-4
#  potential: POTENTIAL_SELF_GRAVITY
#  g_internal: 1.
#  mass_point_mass_in_kg: 1.
#  courant_factor: 0.4
#  riemannsolver_type: RIEMANNSOLVER_TYPE_EXACT
#  dimensionality: DIMENSIONALITY_3D
#  hydro_order: HYDRO_ORDER_2
#
# x (m)	rho (kg m^-3)	u (m s^-1)	P (kg m^-1 s^-2)
0.0005	1884.75	-0.00156787	308.868
0.0015	1453.97	-0.00232307	296.573
0.0025	940.839	-0.00334706	283.402
0.0035	712.016	-0.00411512	272.379
0.0045	593.767	-0.00503001	262.98
0.0055	518.073	-0.00601098	254.483
0.0065	462.97	-0.00700227	246.585
0.0075	420.382	-0.0079911	239.139
0.0085	386.109	-0.00897497	232.06
0.0095	357.717	-0.00995462	225.289
0.0105	333.683	-0.0109314	218.786
0.0115	312.987	-0.0119069	212.521
0.0125	294.907	-0.012882	206.473
0.0135	278.919	-0.0138578	200.623
0.0145	264.63	-0.014835	194.958
0.0155	251.749	-0.0158142	189.465
0.0165	240.049	-0.0167961	184.136
0.0175	229.355	-0.0177815	178.961
0.0185	219.527	-0.018771	173.935
0.0195	210.45	-0.0197653	169.049
0.0205	202.033	-0.0207649	164.299
0.0215	194.197	-0.0217703	159.68
0.0225	186.877	-0.0227821	155.186
0.0235	180.018	-0.0238005	150.814
0.0245	173.573	-0.0248259	146.559
0.0255	167.501	-0.0258585	142.418
0.0265	161.769	-0.0268985	138.387
0.0275	156.344	-0.0279462	134.463
0.0285	151.201	-0.0290019	130.642
0.0295	146.315	-0.0300657	126.923
0.0305	141.665	-0.031138	123.301
0.0315	137.233	-0.0322193	119.775
0.0325	133.002	-0.0333102	116.341
0.0335	128.955	-0.0344112	112.998
0.0345	125.081	-0.0355232	109.742
0.0355	121.365	-0.0366469	106.572
0.0365	117.797	-0.0377832	103.485
0.0375	114.366	-0.0389331	100.48
0.0385	111.063	-0.0400972	97.5541
0.0395	107.877	-0.0412764	94.7056
0.0405	104.798	-0.0424712	91.933
0.0415	101.812	-0.0436819	89.2349
0.0425	98.9009	-0.0449085	86.6102
0.0435	96.0427	-0.0461506	84.0583
0.0445	93.2131	-0.0474074	81.579
0.0455	90.392	-0.0486776	79.1729
0.0465	87.5666	-0.0499604	76.8409
0.0475	84.7292	-0.0512541	74.584
0.0485	81.8989	-0.0525581	72.4034
0.0495	79.1066	-0.0538729	70.2992
0.0505	76.3855	-0.0551992	68.2707
0.0515	73.7637	-0.0565383	66.3163
0.0525	71.2592	-0.0578913	64.4336
0.0535	68.8781	-0.0592593	62.6198
0.0545	66.6178	-0.060643	60.872
0.0555	64.4701	-0.0620427	59.1872
0.0565	62.4256	-0.0634587	57.5626
0.0575	60.475	-0.0648912	55.9956
0.0585	58.6109	-0.0663403	54.4839
0.0595	56.8271	-0.0678061	53.0252
0.0605	55.1186	-0.0692888	51.6172
0.0615	53.4812	-0.0707884	50.2579
0.0625	51.9114	-0.0723049	48.9454
0.0635	50.4057	-0.0738382	47.6776
0.0645	48.961	-0.0753884	46.4528
0.0655	47.5744	-0.0769554	45.2691
0.0665	46.2432	-0.0785396	44.1249
0.0675	44.9647	-0.0801411	43.0186
0.0685	43.7364	-0.0817606	41.9488
0.0695	42.5559	-0.0833989	40.9138
0.0705	41.421	-0.0850568	39.9123
0.0715	40.3295	-0.086735	38.9431
0.0725	39.2795	-0.088434	38.0049
0.0735	38.2689	-0.090154	37.0963
0.0745	37.296	-0.0918948	36.2162
0.0755	36.3589	-0.0936557	35.3634
0.0765	35.456	-0.0954358	34.5367
0.0775	34.5855	-0.0972342	33.7352
0.0785	33.746	-0.0990502	32.9577
0.0795	32.9361	-0.100883	32.2034
0.0805	32.1544	-0.102733	31.4713
0.0815	31.3998	-0.1046	30.7605
0.0825	30.671	-0.106484	30.0702
0.0835	29.967	-0.108387	29.3998
0.0845	29.2865	-0.110308	28.7483
0.0855	28.6287	-0.112248	28.1153
0.0865	27.9924	-0.114208	27.4999
0.0875	27.3769	-0.116188	26.9016
0.0885	26.7812	-0.118189	26.3197
0.0895	26.2046	-0.12021	25.7535
0.0905	25.6463	-0.122252	25.2026
0.0915	25.1053	-0.124314	24.6664
0.0925	24.5811	-0.126397	24.1444
0.0935	24.0729	-0.128502	23.6359
0.0945	23.5801	-0.130629	23.1407
0.0955	23.1021	-0.132778	22.6582
0.0965	22.6384	-0.13495	22.188
0.0975	22.1883	-0.137147	21.7297
0.0985	21.7513	-0.139367	21.2828
0.0995	21.327	-0.141612	20.8471
0.1005	20.9147	-0.143882	20.422
0.1015	20.5141	-0.146176	20.0072
0.1025	20.1246	-0.148495	19.6025
0.1035	19.7458	-0.150839	19.2073
0.1045	19.3774	-0.153207	18.8215
0.1055	19.0188	-0.1556	18.4447
0.1065	18.6698	-0.15802	18.0766
0.1075	18.3302	-0.160468	17.7169
0.1085	17.9994	-0.162945	17.3655
0.1095	17.6771	-0.165449	17.022
0.1105	17.3629	-0.167978	16.686
0.1115	17.0562	-0.170539	16.3575
0.1125	16.7565	-0.173138	16.0364
0.1135	16.4633	-0.175775	15.7224
0.1145	16.176	-0.178439	15.4152
0.1155	15.895	-0.18112	15.1142
0.1165	15.6212	-0.183824	14.8194
0.1175	15.3556	-0.186579	14.5311
0.1185	15.098	-0.189406	14.2495
0.1195	14.847	-0.19228	13.974
0.1205	14.6003	-0.195139	13.703
0.1215	14.357	-0.197966	13.4362
0.1225	14.1177	-0.200834	13.1746
0.1235	13.8843	-0.203867	12.9203
0.1245	13.6573	-0.207092	12.6739
0.1255	13.4342	-0.2103	12.4314
0.1265	13.2121	-0.213267	12.1884
0.1275	12.9917	-0.216023	11.946
0.1285	12.7769	-0.219044	11.7106
0.1295	12.5737	-0.22281	11.491
0.1305	12.3795	-0.227067	11.2834
0.1315	12.1809	-0.230769	11.0671
0.1325	11.9705	-0.232814	10.8315
0.1335	11.7585	-0.234474	10.5926
0.1345	11.5721	-0.238503	10.3892
0.1355	11.4192	-0.245159	10.236
0.1365	11.2044	-0.257347	10.0378
0.1375	10.1932	-0.383068	8.24193
0.1385	3.58245	-1.51844	0.909881
0.1395	3.28979	-1.6279	0.5469
0.1405	3.2545	-1.62311	0.537646
0.1415	3.21985	-1.61838	0.528618
0.1425	3.1858	-1.6137	0.519809
0.1435	3.15236	-1.60908	0.511213
0.1445	3.11951	-1.60451	0.502822
0.1455	3.08722	-1.59999	0.49463
0.1465	3.0555	-1.59553	0.486632
0.1475	3.02431	-1.59112	0.478821
0.1485	2.99366	-1.58675	0.471192
0.1495	2.96353	-1.58244	0.463739
0.1505	2.93391	-1.57817	0.456457
0.1515	2.90478	-1.57396	0.449341
0.1525	2.87613	-1.56979	0.442386
0.1535	2.84796	-1.56566	0.435587
0.1545	2.82025	-1.56158	0.42894
0.1555	2.79299	-1.55755	0.422441
0.1565	2.76617	-1.55356	0.416085
0.1575	2.73979	-1.54961	0.409869
0.1585	2.71382	-1.5457	0.403787
0.1595	2.68827	-1.54184	0.397837
0.1605	2.66312	-1.53801	0.392015
0.1615	2.63837	-1.53423	0.386318
0.1625	2.614	-1.53049	0.380741
0.1635	2.59001	-1.52678	0.375281
0.1645	2.56639	-1.52312	0.369936
0.1655	2.54313	-1.51949	0.364702
0.1665	2.52023	-1.5159	0.359577
0.1675	2.49767	-1.51234	0.354557
0.1685	2.47545	-1.50882	0.349639
0.1695	2.45357	-1.50534	0.344822
0.1705	2.43201	-1.50189	0.340101
0.1715	2.41077	-1.49848	0.335476
0.1725	2.38984	-1.4951	0.330943
0.1735	2.36921	-1.49175	0.326499
0.1745	2.34889	-1.48844	0.322143
0.1755	2.32886	-1.48515	0.317873
0.1765	2.30912	-1.4819	0.313685
0.1775	2.28966	-1.47869	0.309579
0.1785	2.27048	-1.4755	0.305552
0.1795	2.25157	-1.47234	0.301602
0.1805	2.23293	-1.46921	0.297727
0.1815	2.21454	-1.46612	0.293926
0.1825	2.19641	-1.46305	0.290196
0.1835	2.17853	-1.46001	0.286536
0.1845	2.1609	-1.457	0.282943
0.1855	2.14351	-1.45401	0.279418
0.1865	2.12636	-1.45106	0.275957
0.1875	2.10944	-1.44813	0.27256
0.1885	2.09274	-1.44523	0.269224
0.1895	2.07627	-1.44235	0.265949
0.1905	2.06002	-1.4395	0.262733
0.1915	2.04399	-1.43668	0.259574
0.1925	2.02817	-1.43388	0.256472
0.1935	2.01255	-1.4311	0.253424
0.1945	1.99714	-1.42835	0.250431
0.1955	1.98193	-1.42563	0.247489
0.1965	1.96691	-1.42293	0.244599
0.1975	1.95209	-1.42025	0.241759
0.1985	1.93746	-1.4176	0.238968
0.1995	1.92301	-1.41497	0.236225
0.2005	1.90875	-1.41236	0.233529
0.2015	1.89467	-1.40977	0.230878
0.2025	1.88076	-1.40721	0.228273
0.2035	1.86703	-1.40467	0.225711
0.2045	1.85347	-1.40215	0.223192
0.2055	1.84007	-1.39965	0.220715
0.2065	1.82684	-1.39717	0.218278
0.2075	1.81378	-1.39471	0.215882
0.2085	1.80087	-1.39228	0.213525
0.2095	1.78812	-1.38986	0.211207
0.2105	1.77552	-1.38746	0.208926
0.2115	1.76307	-1.38509	0.206682
0.2125	1.75078	-1.38273	0.204474
0.2135	1.73863	-1.38039	0.202302
0.2145	1.72662	-1.37807	0.200164
0.2155	1.71475	-1.37577	0.198059
0.2165	1.70303	-1.37349	0.195988
0.2175	1.69144	-1.37122	0.19395
0.2185	1.67998	-1.36898	0.191943
0.2195	1.66866	-1.36675	0.189967
0.2205	1.65747	-1.36454	0.188022
0.2215	1.64641	-1.36235	0.186107
0.2225	1.63547	-1.36017	0.184221
0.2235	1.62466	-1.35801	0.182363
0.2245	1.61397	-1.35587	0.180534
0.2255	1.6034	-1.35375	0.178733
0.2265	1.59295	-1.35164	0.176958
0.2275	1.58262	-1.34955	0.17521
0.2285	1.5724	-1.34747	0.173489
0.2295	1.56229	-1.34541	0.171792
0.2305	1.5523	-1.34336	0.170121
0.2315	1.54242	-1.34133	0.168474
0.2325	1.53264	-1.33932	0.166851
0.2335	1.52297	-1.33732	0.165252
0.2345	1.5134	-1.33534	0.163676
0.2355	1.50394	-1.33337	0.162123
0.2365	1.49458	-1.33141	0.160592
0.2375	1.48532	-1.32947	0.159083
0.2385	1.47616	-1.32754	0.157595
0.2395	1.4671	-1.32563	0.156128
0.2405	1.45813	-1.32373	0.154682
0.2415	1.44926	-1.32185	0.153257
0.2425	1.44047	-1.31998	0.151851
0.2435	1.43179	-1.31812	0.150465
0.2445	1.42319	-1.31628	0.149098
0.2455	1.41468	-1.31445	0.14775
0.2465	1.40625	-1.31263	0.14642
0.2475	1.39792	-1.31083	0.145109
0.2485	1.38967	-1.30904	0.143815
0.2495	1.3815	-1.30726	0.142539
0.2505	1.37342	-1.30549	0.141281
0.2515	1.36542	-1.30374	0.140039
0.2525	1.3575	-1.30199	0.138813
0.2535	1.34965	-1.30027	0.137605
0.2545	1.34189	-1.29855	0.136412
0.2555	1.3342	-1.29684	0.135235
0.2565	1.32659	-1.29515	0.134073
0.2575	1.31906	-1.29347	0.132927
0.2585	1.3116	-1.29179	0.131795
0.2595	1.30421	-1.29013	0.130679
0.2605	1.2969	-1.28849	0.129576
0.2615	1.28965	-1.28685	0.128488
0.2625	1.28248	-1.28522	0.127414
0.2635	1.27537	-1.28361	0.126354
0.2645	1.26833	-1.282	0.125307
0.2655	1.26136	-1.28041	0.124274
0.2665	1.25446	-1.27883	0.123253
0.2675	1.24762	-1.27725	0.122246
0.2685	1.24085	-1.27569	0.121251
0.2695	1.23414	-1.27414	0.120268
0.2705	1.22749	-1.2726	0.119298
0.2715	1.22091	-1.27107	0.11834
0.2725	1.21439	-1.26955	0.117393
0.2735	1.20793	-1.26803	0.116458
0.2745	1.20152	-1.26653	0.115535
0.2755	1.19518	-1.26504	0.114623
0.2765	1.1889	-1.26356	0.113722
0.2775	1.18267	-1.26208	0.112832
0.2785	1.1765	-1.26062	0.111952
0.2795	1.17038	-1.25917	0.111083
0.2805	1.16432	-1.25772	0.110225
0.2815	1.15832	-1.25628	0.109377
0.2825	1.15237	-1.25486	0.108538
0.2835	1.14647	-1.25344	0.10771
0.2845	1.14063	-1.25203	0.106892
0.2855	1.13483	-1.25063	0.106083
0.2865	1.12909	-1.24924	0.105283
0.2875	1.1234	-1.24786	0.104493
0.2885	1.11776	-1.24648	0.103712
0.2895	1.11217	-1.24511	0.10294
0.2905	1.10663	-1.24376	0.102177
0.2915	1.10113	-1.24241	0.101423
0.2925	1.09569	-1.24107	0.100678
0.2935	1.09029	-1.23973	0.0999404
0.2945	1.08493	-1.23841	0.0992116
0.2955	1.07963	-1.23709	0.0984911
0.2965	1.07437	-1.23578	0.0977787
0.2975	1.06915	-1.23448	0.0970742
0.2985	1.06398	-1.23319	0.0963777
0.2995	1.05885	-1.2319	0.095689
0.3005	1.05376	-1.23063	0.0950078
0.3015	1.04872	-1.22936	0.0943343
0.3025	1.04372	-1.22809	0.0936681
0.3035	1.03876	-1.22684	0.0930093
0.3045	1.03385	-1.22559	0.0923577
0.3055	1.02897	-1.22435	0.0917131
0.3065	1.02414	-1.22312	0.0910756
0.3075	1.01934	-1.22189	0.090445
0.3085	1.01458	-1.22067	0.0898213
0.3095	1.00987	-1.21946	0.0892042
0.3105	1.00519	-1.21825	0.0885937
0.3115	1.00055	-1.21706	0.0879898
0.3125	0.995943	-1.21587	0.0873923
0.3135	0.991377	-1.21468	0.0868011
0.3145	0.986847	-1.2135	0.0862162
0.3155	0.982355	-1.21233	0.0856374
0.3165	0.977898	-1.21117	0.0850647
0.3175	0.973477	-1.21001	0.084498
0.3185	0.969091	-1.20886	0.0839372
0.3195	0.964739	-1.20772	0.0833823
0.3205	0.960423	-1.20658	0.0828331
0.3215	0.95614	-1.20545	0.0822895
0.3225	0.951891	-1.20432	0.0817516
0.3235	0.947675	-1.2032	0.0812191
0.3245	0.943492	-1.20209	0.0806921
0.3255	0.939341	-1.20098	0.0801705
0.3265	0.935223	-1.19988	0.0796542
0.3275	0.931137	-1.19879	0.0791431
0.3285	0.927082	-1.1977	0.0786371
0.3295	0.923058	-1.19661	0.0781362
0.3305	0.919066	-1.19554	0.0776404
0.3315	0.915103	-1.19447	0.0771495
0.3325	0.911171	-1.1934	0.0766634
0.3335	0.907269	-1.19234	0.0761822
0.3345	0.903396	-1.19129	0.0757058
0.3355	0.899552	-1.19024	0.075234
0.3365	0.895738	-1.1892	0.0747669
0.3375	0.891952	-1.18816	0.0743044
0.3385	0.888194	-1.18713	0.0738463
0.3395	0.884464	-1.1861	0.0733928
0.3405	0.880762	-1.18508	0.0729436
0.3415	0.877088	-1.18407	0.0724987
0.3425	0.87344	-1.18306	0.0720582
0.3435	0.86982	-1.18206	0.0716218
0.3445	0.866226	-1.18106	0.0711897
0.3455	0.862658	-1.18006	0.0707617
0.3465	0.859116	-1.17907	0.0703377
0.3475	0.8556	-1.17809	0.0699178
0.3485	0.85211	-1.17711	0.0695018
0.3495	0.848645	-1.17614	0.0690897
0.3505	0.845205	-1.17517	0.0686816
0.3515	0.84179	-1.17421	0.0682772
0.3525	0.838399	-1.17325	0.0678766
0.3535	0.835032	-1.1723	0.0674797
0.3545	0.831689	-1.17135	0.0670866
0.3555	0.828371	-1.1704	0.066697
0.3565	0.825075	-1.16947	0.066311
0.3575	0.821803	-1.16853	0.0659286
0.3585	0.818554	-1.1676	0.0655497
0.3595	0.815327	-1.16668	0.0651742
0.3605	0.812124	-1.16576	0.0648021
0.3615	0.808942	-1.16484	0.0644334
0.3625	0.805783	-1.16393	0.064068
0.3635	0.802645	-1.16302	0.0637059
0.3645	0.799529	-1.16212	0.0633471
0.3655	0.796434	-1.16122	0.0629914
0.3665	0.79336	-1.16033	0.0626388
0.3675	0.790307	-1.15944	0.0622894
0.3685	0.787275	-1.15856	0.061943
0.3695	0.784263	-1.15768	0.0615996
0.3705	0.781271	-1.1568	0.0612592
0.3715	0.778298	-1.15593	0.0609217
0.3725	0.775345	-1.15506	0.0605871
0.3735	0.772411	-1.15419	0.0602553
0.3745	0.769495	-1.15333	0.0599262
0.3755	0.766598	-1.15247	0.0595999
0.3765	0.763719	-1.15162	0.0592762
0.3775	0.760858	-1.15077	0.0589551
0.3785	0.758014	-1.14992	0.0586365
0.3795	0.755186	-1.14908	0.0583204
0.3805	0.752375	-1.14824	0.0580067
0.3815	0.74958	-1.1474	0.0576953
0.3825	0.746799	-1.14656	0.0573861
0.3835	0.744034	-1.14573	0.0570791
0.3845	0.741282	-1.14489	0.0567742
0.3855	0.738544	-1.14406	0.0564714
0.3865	0.735819	-1.14323	0.0561704
0.3875	0.733106	-1.14241	0.0558712
0.3885	0.730404	-1.14158	0.0555738
0.3895	0.727713	-1.14075	0.055278
0.3905	0.725031	-1.13993	0.0549837
0.3915	0.722359	-1.1391	0.0546909
0.3925	0.719696	-1.13827	0.0543994
0.3935	0.717039	-1.13745	0.0541091
0.3945	0.714389	-1.13662	0.0538198
0.3955	0.711744	-1.13579	0.0535315
0.3965	0.709103	-1.13495	0.053244
0.3975	0.706466	-1.13411	0.0529572
0.3985	0.70383	-1.13328	0.052671
0.3995	0.701195	-1.13243	0.0523851
0.4005	0.69856	-1.13158	0.0520996
0.4015	0.695925	-1.13073	0.0518142
0.4025	0.693288	-1.12987	0.0515288
0.4035	0.690648	-1.12901	0.0512433
0.4045	0.688004	-1.12814	0.0509577
0.4055	0.685354	-1.12726	0.0506717
0.4065	0.682698	-1.12637	0.0503852
0.4075	0.680035	-1.12548	0.0500981
0.4085	0.677363	-1.12457	0.0498103
0.4095	0.674682	-1.12366	0.0495216
0.4105	0.67199	-1.12274	0.049232
0.4115	0.669287	-1.12181	0.0489414
0.4125	0.666572	-1.12086	0.0486497
0.4135	0.663845	-1.11991	0.0483568
0.4145	0.661104	-1.11894	0.0480627
0.4155	0.65835	-1.11796	0.0477673
0.4165	0.655581	-1.11697	0.0474705
0.4175	0.652797	-1.11597	0.0471723
0.4185	0.649998	-1.11495	0.0468727
0.4195	0.647184	-1.11393	0.0465717
0.4205	0.644355	-1.11288	0.0462692
0.4215	0.64151	-1.11183	0.0459654
0.4225	0.638649	-1.11076	0.0456601
0.4235	0.635773	-1.10968	0.0453534
0.4245	0.632881	-1.10858	0.0450453
0.4255	0.629975	-1.10748	0.044736
0.4265	0.627053	-1.10635	0.0444253
0.4275	0.624117	-1.10522	0.0441135
0.4285	0.621166	-1.10407	0.0438004
0.4295	0.618202	-1.10291	0.0434863
0.4305	0.615225	-1.10174	0.0431712
0.4315	0.612235	-1.10055	0.0428551
0.4325	0.609232	-1.09935	0.0425382
0.4335	0.606219	-1.09814	0.0422205
0.4345	0.603194	-1.09692	0.0419021
0.4355	0.600159	-1.09569	0.0415831
0.4365	0.597114	-1.09444	0.0412636
0.4375	0.59406	-1.09319	0.0409437
0.4385	0.590999	-1.09192	0.0406234
0.4395	0.587929	-1.09064	0.0403029
0.4405	0.584853	-1.08936	0.0399823
0.4415	0.581771	-1.08806	0.0396616
0.4425	0.578683	-1.08675	0.039341
0.4435	0.575591	-1.08544	0.0390205
0.4445	0.572495	-1.08412	0.0387002
0.4455	0.569396	-1.08278	0.0383803
0.4465	0.566295	-1.08144	0.0380608
0.4475	0.563191	-1.0801	0.0377418
0.4485	0.560087	-1.07874	0.0374234
0.4495	0.556982	-1.07738	0.0371056
0.4505	0.553877	-1.07601	0.0367886
0.4515	0.550774	-1.07463	0.0364724
0.4525	0.547671	-1.07325	0.0361571
0.4535	0.544571	-1.07186	0.0358428
0.4545	0.541473	-1.07047	0.0355294
0.4555	0.538379	-1.06907	0.0352172
0.4565	0.535288	-1.06767	0.0349061
0.4575	0.532201	-1.06626	0.0345962
0.4585	0.529119	-1.06485	0.0342876
0.4595	0.526043	-1.06343	0.0339803
0.4605	0.522972	-1.06201	0.0336744
0.4615	0.519907	-1.06058	0.0333699
0.4625	0.516849	-1.05915	0.0330668
0.4635	0.513797	-1.05772	0.0327653
0.4645	0.510753	-1.05628	0.0324652
0.4655	0.507717	-1.05484	0.0321668
0.4665	0.504688	-1.0534	0.03187
0.4675	0.501668	-1.05196	0.0315748
0.4685	0.498657	-1.05051	0.0312813
0.4695	0.495654	-1.04906	0.0309895
0.4705	0.492661	-1.04761	0.0306994
0.4715	0.489677	-1.04615	0.0304111
0.4725	0.486703	-1.0447	0.0301246
0.4735	0.483739	-1.04324	0.0298399
0.4745	0.480786	-1.04178	0.029557
0.4755	0.477842	-1.04032	0.0292759
0.4765	0.47491	-1.03886	0.0289967
0.4775	0.471988	-1.03739	0.0287193
0.4785	0.469077	-1.03593	0.0284439
0.4795	0.466177	-1.03446	0.0281703
0.4805	0.463289	-1.03299	0.0278986
0.4815	0.460412	-1.03152	0.0276289
0.4825	0.457547	-1.03005	0.0273611
0.4835	0.454694	-1.02858	0.0270952
0.4845	0.451853	-1.02711	0.0268312
0.4855	0.449023	-1.02564	0.0265692
0.4865	0.446206	-1.02417	0.0263091
0.4875	0.443401	-1.02269	0.026051
0.4885	0.440608	-1.02122	0.0257949
0.4895	0.437828	-1.01975	0.0255407
0.4905	0.43506	-1.01827	0.0252884
0.4915	0.432304	-1.0168	0.0250381
0.4925	0.429562	-1.01532	0.0247898
0.4935	0.426831	-1.01384	0.0245434
0.4945	0.424114	-1.01237	0.0242989
0.4955	0.42141	-1.01089	0.0240564
0.4965	0.418718	-1.00942	0.0238159
0.4975	0.416039	-1.00794	0.0235773
0.4985	0.413373	-1.00646	0.0233406
0.4995	0.41072	-1.00499	0.0231059
0.5005	0.40808	-1.00351	0.0228731
0.5015	0.405453	-1.00204	0.0226422
0.5025	0.402839	-1.00056	0.0224133
0.5035	0.400238	-0.999084	0.0221862
0.5045	0.39765	-0.997608	0.0219611
0.5055	0.395075	-0.996132	0.0217378
0.5065	0.392513	-0.994656	0.0215165
0.5075	0.389964	-0.993181	0.021297
0.5085	0.387429	-0.991706	0.0210794
0.5095	0.384906	-0.99023	0.0208637
0.5105	0.382396	-0.988756	0.0206498
0.5115	0.3799	-0.987281	0.0204378
0.5125	0.377417	-0.985807	0.0202276
0.5135	0.374946	-0.984332	0.0200193
0.5145	0.372489	-0.982859	0.0198128
0.5155	0.370045	-0.981385	0.0196081
0.5165	0.367613	-0.979912	0.0194052
0.5175	0.365195	-0.978439	0.0192041
0.5185	0.36279	-0.976966	0.0190048
0.5195	0.360397	-0.975494	0.0188072
0.5205	0.358018	-0.974022	0.0186115
0.5215	0.355651	-0.97255	0.0184175
0.5225	0.353297	-0.971079	0.0182252
0.5235	0.350957	-0.969608	0.0180347
0.5245	0.348629	-0.968137	0.0178458
0.5255	0.346313	-0.966667	0.0176588
0.5265	0.344011	-0.965197	0.0174734
0.5275	0.341721	-0.963728	0.0172897
0.5285	0.339444	-0.962259	0.0171076
0.5295	0.33718	-0.96079	0.0169273
0.5305	0.334928	-0.959321	0.0167486
0.5315	0.332689	-0.957853	0.0165716
0.5325	0.330462	-0.956386	0.0163962
0.5335	0.328248	-0.954918	0.0162224
0.5345	0.326047	-0.953451	0.0160503
0.5355	0.323858	-0.951985	0.0158797
0.5365	0.321681	-0.950519	0.0157108
0.5375	0.319516	-0.949053	0.0155434
0.5385	0.317364	-0.947587	0.0153776
0.5395	0.315225	-0.946122	0.0152133
0.5405	0.313097	-0.944658	0.0150506
0.5415	0.310982	-0.943193	0.0148895
0.5425	0.308879	-0.941729	0.0147299
0.5435	0.306788	-0.940266	0.0145718
0.5445	0.304709	-0.938803	0.0144151
0.5455	0.302642	-0.93734	0.01426
0.5465	0.300587	-0.935877	0.0141064
0.5475	0.298543	-0.934415	0.0139542
0.5485	0.296512	-0.932953	0.0138035
0.5495	0.294493	-0.931492	0.0136543
0.5505	0.292485	-0.930031	0.0135065
0.5515	0.29049	-0.92857	0.0133601
0.5525	0.288506	-0.92711	0.0132151
0.5535	0.286533	-0.925649	0.0130715
0.5545	0.284572	-0.92419	0.0129294
0.5555	0.282623	-0.92273	0.0127886
0.5565	0.280685	-0.921271	0.0126491
0.5575	0.278759	-0.919813	0.0125111
0.5585	0.276844	-0.918354	0.0123744
0.5595	0.27494	-0.916896	0.012239
0.5605	0.273048	-0.915438	0.012105
0.5615	0.271167	-0.913981	0.0119722
0.5625	0.269297	-0.912523	0.0118408
0.5635	0.267439	-0.911067	0.0117107
0.5645	0.265591	-0.90961	0.0115818
0.5655	0.263755	-0.908154	0.0114543
0.5665	0.26193	-0.906698	0.011328
0.5675	0.260115	-0.905242	0.0112029
0.5685	0.258312	-0.903787	0.0110791
0.5695	0.256519	-0.902331	0.0109566
0.5705	0.254737	-0.900876	0.0108352
0.5715	0.252966	-0.899422	0.0107151
0.5725	0.251206	-0.897967	0.0105962
0.5735	0.249456	-0.896513	0.0104784
0.5745	0.247717	-0.895059	0.0103619
0.5755	0.245989	-0.893606	0.0102465
0.5765	0.244271	-0.892153	0.0101322
0.5775	0.242564	-0.890699	0.0100192
0.5785	0.240867	-0.889246	0.00990723
0.5795	0.23918	-0.887794	0.00979642
0.5805	0.237504	-0.886341	0.00968674
0.5815	0.235838	-0.884889	0.00957818
0.5825	0.234182	-0.883437	0.00947071
0.5835	0.232536	-0.881985	0.00936434
0.5845	0.2309	-0.880534	0.00925905
0.5855	0.229275	-0.879082	0.00915483
0.5865	0.22766	-0.877631	0.00905168
0.5875	0.226054	-0.87618	0.00894958
0.5885	0.224458	-0.874729	0.00884853
0.5895	0.222873	-0.873279	0.00874851
0.5905	0.221297	-0.871828	0.00864952
0.5915	0.219731	-0.870378	0.00855155
0.5925	0.218174	-0.868928	0.00845458
0.5935	0.216628	-0.867478	0.00835861
0.5945	0.215091	-0.866028	0.00826364
0.5955	0.213563	-0.864579	0.00816964
0.5965	0.212045	-0.863129	0.00807662
0.5975	0.210536	-0.86168	0.00798456
0.5985	0.209037	-0.860231	0.00789346
0.5995	0.207548	-0.858781	0.0078033
0.6005	0.206067	-0.857333	0.00771408
0.6015	0.204596	-0.855884	0.00762579
0.6025	0.203134	-0.854435	0.00753841
0.6035	0.201681	-0.852986	0.00745195
0.6045	0.200238	-0.851538	0.0073664
0.6055	0.198803	-0.85009	0.00728173
0.6065	0.197378	-0.848641	0.00719796
0.6075	0.195961	-0.847193	0.00711506
0.6085	0.194553	-0.845745	0.00703303
0.6095	0.193155	-0.844297	0.00695186
0.6105	0.191765	-0.842849	0.00687155
0.6115	0.190384	-0.841401	0.00679208
0.6125	0.189011	-0.839953	0.00671345
0.6135	0.187648	-0.838506	0.00663565
0.6145	0.186293	-0.837058	0.00655867
0.6155	0.184946	-0.83561	0.00648251
0.6165	0.183608	-0.834163	0.00640715
0.6175	0.182279	-0.832715	0.00633259
0.6185	0.180958	-0.831268	0.00625882
0.6195	0.179645	-0.82982	0.00618584
0.6205	0.178341	-0.828373	0.00611363
0.6215	0.177045	-0.826926	0.00604219
0.6225	0.175758	-0.825478	0.00597152
0.6235	0.174478	-0.824031	0.00590159
0.6245	0.173207	-0.822584	0.00583242
0.6255	0.171944	-0.821136	0.00576398
0.6265	0.170689	-0.819689	0.00569627
0.6275	0.169442	-0.818242	0.00562929
0.6285	0.168203	-0.816794	0.00556303
0.6295	0.166972	-0.815347	0.00549749
0.6305	0.165749	-0.8139	0.00543264
0.6315	0.164534	-0.812452	0.00536849
0.6325	0.163326	-0.811005	0.00530504
0.6335	0.162127	-0.809557	0.00524227
0.6345	0.160935	-0.80811	0.00518017
0.6355	0.159751	-0.806662	0.00511875
0.6365	0.158574	-0.805215	0.00505799
0.6375	0.157405	-0.803767	0.00499789
0.6385	0.156243	-0.80232	0.00493844
0.6395	0.155089	-0.800872	0.00487963
0.6405	0.153943	-0.799424	0.00482147
0.6415	0.152804	-0.797976	0.00476393
0.6425	0.151672	-0.796529	0.00470703
0.6435	0.150547	-0.795081	0.00465074
0.6445	0.14943	-0.793633	0.00459506
0.6455	0.14832	-0.792185	0.00454
0.6465	0.147218	-0.790736	0.00448553
0.6475	0.146122	-0.789288	0.00443167
0.6485	0.145034	-0.78784	0.00437839
0.6495	0.143953	-0.786392	0.0043257
0.6505	0.142878	-0.784943	0.00427358
0.6515	0.141811	-0.783495	0.00422204
0.6525	0.140751	-0.782046	0.00417106
0.6535	0.139698	-0.780597	0.00412065
0.6545	0.138651	-0.779149	0.00407079
0.6555	0.137611	-0.7777	0.00402148
0.6565	0.136579	-0.776251	0.00397272
0.6575	0.135553	-0.774802	0.0039245
0.6585	0.134533	-0.773353	0.00387681
0.6595	0.133521	-0.771903	0.00382965
0.6605	0.132515	-0.770454	0.00378301
0.6615	0.131516	-0.769005	0.0037369
0.6625	0.130523	-0.767555	0.00369129
0.6635	0.129537	-0.766106	0.0036462
0.6645	0.128557	-0.764656	0.0036016
0.6655	0.127584	-0.763206	0.00355751
0.6665	0.126617	-0.761757	0.00351391
0.6675	0.125657	-0.760307	0.0034708
0.6685	0.124703	-0.758857	0.00342817
0.6695	0.123755	-0.757407	0.00338602
0.6705	0.122814	-0.755957	0.00334434
0.6715	0.121879	-0.754507	0.00330314
0.6725	0.12095	-0.753057	0.0032624
0.6735	0.120028	-0.751606	0.00322212
0.6745	0.119111	-0.750156	0.00318229
0.6755	0.118201	-0.748706	0.00314292
0.6765	0.117297	-0.747256	0.00310399
0.6775	0.116399	-0.745806	0.00306551
0.6785	0.115507	-0.744355	0.00302746
0.6795	0.114621	-0.742905	0.00298985
0.6805	0.113741	-0.741455	0.00295266
0.6815	0.112867	-0.740005	0.00291591
0.6825	0.111999	-0.738555	0.00287957
0.6835	0.111137	-0.737104	0.00284365
0.6845	0.11028	-0.735654	0.00280814
0.6855	0.10943	-0.734204	0.00277304
0.6865	0.108585	-0.732754	0.00273835
0.6875	0.107746	-0.731305	0.00270406
0.6885	0.106913	-0.729855	0.00267016
0.6895	0.106086	-0.728405	0.00263666
0.6905	0.105264	-0.726956	0.00260354
0.6915	0.104448	-0.725507	0.00257081
0.6925	0.103637	-0.724057	0.00253846
0.6935	0.102833	-0.722608	0.00250649
0.6945	0.102034	-0.72116	0.0024749
0.6955	0.10124	-0.719711	0.00244367
0.6965	0.100452	-0.718263	0.00241281
0.6975	0.0996693	-0.716814	0.00238231
0.6985	0.0988922	-0.715367	0.00235218
0.6995	0.0981206	-0.713919	0.00232239
0.7005	0.0973544	-0.712472	0.00229296
0.7015	0.0965937	-0.711025	0.00226388
0.7025	0.0958383	-0.709578	0.00223514
0.7035	0.0950883	-0.708131	0.00220675
0.7045	0.0943435	-0.706685	0.00217869
0.7055	0.0936041	-0.70524	0.00215097
0.7065	0.09287	-0.703794	0.00212358
0.7075	0.0921411	-0.702349	0.00209651
0.7085	0.0914174	-0.700905	0.00206977
0.7095	0.0906989	-0.69946	0.00204335
0.7105	0.0899856	-0.698017	0.00201725
0.7115	0.0892774	-0.696573	0.00199146
0.7125	0.0885744	-0.69513	0.00196598
0.7135	0.0878764	-0.693688	0.00194081
0.7145	0.0871834	-0.692246	0.00191595
0.7155	0.0864955	-0.690804	0.00189138
0.7165	0.0858125	-0.689363	0.00186711
0.7175	0.0851346	-0.687923	0.00184314
0.7185	0.0844615	-0.686483	0.00181946
0.7195	0.0837934	-0.685043	0.00179607
0.7205	0.0831301	-0.683604	0.00177296
0.7215	0.0824717	-0.682165	0.00175013
0.7225	0.0818181	-0.680727	0.00172758
0.7235	0.0811693	-0.67929	0.00170531
0.7245	0.0805253	-0.677853	0.00168331
0.7255	0.079886	-0.676416	0.00166157
0.7265	0.0792513	-0.67498	0.00164011
0.7275	0.0786214	-0.673545	0.0016189
0.7285	0.077996	-0.67211	0.00159796
0.7295	0.0773753	-0.670676	0.00157728
0.7305	0.0767592	-0.669242	0.00155685
0.7315	0.0761476	-0.667808	0.00153667
0.7325	0.0755405	-0.666376	0.00151673
0.7335	0.0749378	-0.664943	0.00149705
0.7345	0.0743397	-0.663512	0.0014776
0.7355	0.0737459	-0.66208	0.0014584
0.7365	0.0731565	-0.66065	0.00143943
0.7375	0.0725715	-0.659219	0.0014207
0.7385	0.0719908	-0.65779	0.00140219
0.7395	0.0714144	-0.656361	0.00138392
0.7405	0.0708422	-0.654932	0.00136587
0.7415	0.0702743	-0.653504	0.00134805
0.7425	0.0697105	-0.652076	0.00133044
0.7435	0.0691509	-0.650648	0.00131305
0.7445	0.0685955	-0.649222	0.00129588
0.7455	0.0680441	-0.647795	0.00127892
0.7465	0.0674968	-0.646369	0.00126217
0.7475	0.0669536	-0.644944	0.00124562
0.7485	0.0664143	-0.643518	0.00122929
0.7495	0.0658791	-0.642094	0.00121315
0.7505	0.0653477	-0.640669	0.00119721
0.7515	0.0648203	-0.639245	0.00118147
0.7525	0.0642968	-0.637822	0.00116593
0.7535	0.0637772	-0.636399	0.00115058
0.7545	0.0632613	-0.634976	0.00113541
0.7555	0.0627493	-0.633553	0.00112044
0.7565	0.062241	-0.632131	0.00110565
0.7575	0.0617364	-0.630709	0.00109105
0.7585	0.0612356	-0.629288	0.00107662
0.7595	0.0607385	-0.627867	0.00106238
0.7605	0.060245	-0.626446	0.00104831
0.7615	0.0597551	-0.625025	0.00103442
0.7625	0.0592688	-0.623605	0.0010207
0.7635	0.0587862	-0.622185	0.00100715
0.7645	0.058307	-0.620765	0.000993763
0.7655	0.0578314	-0.619346	0.000980547
0.7665	0.0573592	-0.617927	0.000967495
0.7675	0.0568906	-0.616508	0.000954606
0.7685	0.0564253	-0.615089	0.000941876
0.7695	0.0559635	-0.613671	0.000929306
0.7705	0.0555051	-0.612253	0.000916892
0.7715	0.05505	-0.610835	0.000904632
0.7725	0.0545983	-0.609417	0.000892526
0.7735	0.0541499	-0.608	0.00088057
0.7745	0.0537048	-0.606582	0.000868764
0.7755	0.053263	-0.605165	0.000857104
0.7765	0.0528244	-0.603748	0.000845591
0.7775	0.052389	-0.602332	0.000834221
0.7785	0.0519569	-0.600915	0.000822994
0.7795	0.0515279	-0.599499	0.000811907
0.7805	0.0511021	-0.598083	0.000800959
0.7815	0.0506794	-0.596667	0.000790148
0.7825	0.0502598	-0.595252	0.000779472
0.7835	0.0498433	-0.593836	0.000768931
0.7845	0.0494298	-0.592421	0.000758521
0.7855	0.0490194	-0.591006	0.000748243
0.7865	0.0486121	-0.589591	0.000738093
0.7875	0.0482077	-0.588176	0.000728072
0.7885	0.0478063	-0.586761	0.000718176
0.7895	0.0474079	-0.585347	0.000708405
0.7905	0.0470124	-0.583933	0.000698757
0.7915	0.0466199	-0.582519	0.000689231
0.7925	0.0462302	-0.581105	0.000679825
0.7935	0.0458435	-0.579691	0.000670538
0.7945	0.0454595	-0.578278	0.000661369
0.7955	0.0450785	-0.576864	0.000652315
0.7965	0.0447002	-0.575451	0.000643376
0.7975	0.0443247	-0.574038	0.00063455
0.7985	0.0439521	-0.572625	0.000625836
0.7995	0.0435822	-0.571212	0.000617233
0.8005	0.043215	-0.5698	0.000608739
0.8015	0.0428506	-0.568387	0.000600353
0.8025	0.0424888	-0.566975	0.000592074
0.8035	0.0421298	-0.565563	0.0005839
0.8045	0.0417734	-0.564151	0.000575831
0.8055	0.0414197	-0.562739	0.000567864
0.8065	0.0410686	-0.561328	0.000559999
0.8075	0.0407201	-0.559916	0.000552234
0.8085	0.0403742	-0.558505	0.000544569
0.8095	0.0400309	-0.557094	0.000537002
0.8105	0.0396902	-0.555683	0.000529532
0.8115	0.039352	-0.554272	0.000522157
0.8125	0.0390163	-0.552862	0.000514877
0.8135	0.0386831	-0.551451	0.000507691
0.8145	0.0383524	-0.550041	0.000500597
0.8155	0.0380242	-0.548631	0.000493594
0.8165	0.0376985	-0.547221	0.000486681
0.8175	0.0373752	-0.545811	0.000479858
0.8185	0.0370543	-0.544402	0.000473122
0.8195	0.0367358	-0.542992	0.000466473
0.8205	0.0364197	-0.541583	0.00045991
0.8215	0.036106	-0.540174	0.000453432
0.8225	0.0357946	-0.538765	0.000447038
0.8235	0.0354856	-0.537356	0.000440727
0.8245	0.0351789	-0.535948	0.000434497
0.8255	0.0348745	-0.53454	0.000428348
0.8265	0.0345724	-0.533131	0.000422279
0.8275	0.0342726	-0.531723	0.000416289
0.8285	0.033975	-0.530316	0.000410377
0.8295	0.0336797	-0.528908	0.000404541
0.8305	0.0333866	-0.5275	0.000398782
0.8315	0.0330957	-0.526093	0.000393098
0.8325	0.032807	-0.524686	0.000387488
0.8335	0.0325205	-0.523279	0.000381952
0.8345	0.0322361	-0.521872	0.000376488
0.8355	0.031954	-0.520466	0.000371095
0.8365	0.0316739	-0.519059	0.000365773
0.8375	0.031396	-0.517653	0.000360521
0.8385	0.0311202	-0.516247	0.000355338
0.8395	0.0308465	-0.514841	0.000350224
0.8405	0.0305748	-0.513435	0.000345176
0.8415	0.0303053	-0.51203	0.000340196
0.8425	0.0300378	-0.510624	0.00033528
0.8435	0.0297723	-0.509219	0.00033043
0.8445	0.0295088	-0.507814	0.000325644
0.8455	0.0292474	-0.506409	0.000320922
0.8465	0.0289879	-0.505004	0.000316262
0.8475	0.0287305	-0.5036	0.000311663
0.8485	0.028475	-0.502195	0.000307126
0.8495	0.0282215	-0.500791	0.00030265
0.8505	0.0279699	-0.499387	0.000298232
0.8515	0.0277202	-0.497983	0.000293874
0.8525	0.0274724	-0.496579	0.000289574
0.8535	0.0272266	-0.495175	0.000285331
0.8545	0.0269826	-0.493772	0.000281145
0.8555	0.0267406	-0.492368	0.000277015
0.8565	0.0265003	-0.490965	0.000272941
0.8575	0.026262	-0.489562	0.00026892
0.8585	0.0260255	-0.488159	0.000264954
0.8595	0.0257908	-0.486756	0.000261042
0.8605	0.0255579	-0.485354	0.000257182
0.8615	0.0253268	-0.483951	0.000253373
0.8625	0.0250975	-0.482549	0.000249617
0.8635	0.02487	-0.481147	0.000245911
0.8645	0.0246443	-0.479745	0.000242255
0.8655	0.0244203	-0.478343	0.000238648
0.8665	0.0241981	-0.476942	0.00023509
0.8675	0.0239776	-0.47554	0.000231581
0.8685	0.0237588	-0.474139	0.000228119
0.8695	0.0235417	-0.472738	0.000224704
0.8705	0.0233264	-0.471337	0.000221335
0.8715	0.0231127	-0.469936	0.000218013
0.8725	0.0229007	-0.468535	0.000214736
0.8735	0.0226903	-0.467135	0.000211503
0.8745	0.0224816	-0.465734	0.000208314
0.8755	0.0222746	-0.464334	0.00020517
0.8765	0.0220692	-0.462934	0.000202068
0.8775	0.0218654	-0.461534	0.000199009
0.8785	0.0216632	-0.460134	0.000195991
0.8795	0.0214626	-0.458735	0.000193015
0.8805	0.0212636	-0.457336	0.00019008
0.8815	0.0210661	-0.455936	0.000187186
0.8825	0.0208702	-0.454537	0.000184331
0.8835	0.0206759	-0.453138	0.000181516
0.8845	0.0204831	-0.451739	0.000178739
0.8855	0.0202919	-0.450341	0.000176001
0.8865	0.0201021	-0.448942	0.000173301
0.8875	0.0199139	-0.447544	0.000170639
0.8885	0.0197271	-0.446146	0.000168013
0.8895	0.0195419	-0.444748	0.000165424
0.8905	0.0193581	-0.44335	0.000162871
0.8915	0.0191758	-0.441952	0.000160353
0.8925	0.0189949	-0.440555	0.00015787
0.8935	0.0188155	-0.439157	0.000155422
0.8945	0.0186375	-0.43776	0.000153009
0.8955	0.018461	-0.436363	0.000150629
0.8965	0.0182858	-0.434966	0.000148282
0.8975	0.0181121	-0.43357	0.000145969
0.8985	0.0179397	-0.432173	0.000143688
0.8995	0.0177687	-0.430777	0.000141439
0.9005	0.0175991	-0.42938	0.000139221
0.9015	0.0174309	-0.427984	0.000137035
0.9025	0.017264	-0.426588	0.00013488
0.9035	0.0170984	-0.425192	0.000132755
0.9045	0.0169342	-0.423797	0.00013066
0.9055	0.0167713	-0.422401	0.000128595
0.9065	0.0166098	-0.421006	0.000126559
0.9075	0.0164495	-0.419611	0.000124552
0.9085	0.0162905	-0.418215	0.000122574
0.9095	0.0161328	-0.416821	0.000120624
0.9105	0.0159764	-0.415426	0.000118702
0.9115	0.0158213	-0.414031	0.000116807
0.9125	0.0156674	-0.412637	0.000114939
0.9135	0.0155147	-0.411242	0.000113098
0.9145	0.0153633	-0.409848	0.000111283
0.9155	0.0152132	-0.408454	0.000109495
0.9165	0.0150642	-0.407061	0.000107732
0.9175	0.0149165	-0.405667	0.000105994
0.9185	0.01477	-0.404273	0.000104282
0.9195	0.0146246	-0.40288	0.000102594
0.9205	0.0144805	-0.401487	0.000100931
0.9215	0.0143376	-0.400093	9.92915e-05
0.9225	0.0141958	-0.398701	9.7676e-05
0.9235	0.0140552	-0.397308	9.60839e-05
0.9245	0.0139157	-0.395915	9.45149e-05
0.9255	0.0137774	-0.394522	9.29688e-05
0.9265	0.0136402	-0.39313	9.14452e-05
0.9275	0.0135042	-0.391738	8.99439e-05
0.9285	0.0133693	-0.390346	8.84645e-05
0.9295	0.0132355	-0.388954	8.70067e-05
0.9305	0.0131028	-0.387562	8.55703e-05
0.9315	0.0129712	-0.38617	8.4155e-05
0.9325	0.0128407	-0.384779	8.27605e-05
0.9335	0.0127113	-0.383387	8.13865e-05
0.9345	0.0125829	-0.381996	8.00328e-05
0.9355	0.0124557	-0.380605	7.86991e-05
0.9365	0.0123295	-0.379214	7.73851e-05
0.9375	0.0122043	-0.377823	7.60905e-05
0.9385	0.0120802	-0.376432	7.48151e-05
0.9395	0.0119572	-0.375041	7.35587e-05
0.9405	0.0118351	-0.373651	7.23209e-05
0.9415	0.0117141	-0.372261	7.11016e-05
0.9425	0.0115941	-0.37087	6.99005e-05
0.9435	0.0114751	-0.36948	6.87173e-05
0.9445	0.0113571	-0.36809	6.75519e-05
0.9455	0.0112401	-0.3667	6.64039e-05
0.9465	0.011124	-0.365311	6.52731e-05
0.9475	0.0110089	-0.363921	6.41593e-05
0.9485	0.0108948	-0.362531	6.30623e-05
0.9495	0.0107816	-0.361142	6.19819e-05
0.9505	0.0106694	-0.359753	6.09177e-05
0.9515	0.010558	-0.358364	5.98697e-05
0.9525	0.0104476	-0.356975	5.88376e-05
0.9535	0.0103381	-0.355586	5.78211e-05
0.9545	0.0102295	-0.354197	5.68201e-05
0.9555	0.0101218	-0.352808	5.58344e-05
0.9565	0.010015	-0.351419	5.48637e-05
0.9575	0.009909	-0.350031	5.39078e-05
0.9585	0.00980389	-0.348642	5.29666e-05
0.9595	0.00969962	-0.347254	5.20399e-05
0.9605	0.00959619	-0.345866	5.11274e-05
0.9615	0.00949359	-0.344478	5.0229e-05
0.9625	0.00939181	-0.34309	4.93444e-05
0.9635	0.00929085	-0.341702	4.84736e-05
0.9645	0.00919069	-0.340314	4.76163e-05
0.9655	0.00909132	-0.338926	4.67723e-05
0.9665	0.00899275	-0.337538	4.59414e-05
0.9675	0.00889496	-0.336151	4.51236e-05
0.9685	0.00879795	-0.334763	4.43185e-05
0.9695	0.00870171	-0.333376	4.35261e-05
0.9705	0.00860624	-0.331988	4.27461e-05
0.9715	0.00851152	-0.330601	4.19784e-05
0.9725	0.00841756	-0.329214	4.12228e-05
0.9735	0.00832435	-0.327827	4.04792e-05
0.9745	0.00823188	-0.326439	3.97474e-05
0.9755	0.00814016	-0.325052	3.90273e-05
0.9765	0.00804917	-0.323665	3.83186e-05
0.9775	0.00795891	-0.322278	3.76213e-05
0.9785	0.00786938	-0.320892	3.69351e-05
0.9795	0.00778058	-0.319505	3.626e-05
0.9805	0.0076925	-0.318118	3.55958e-05
0.9815	0.00760513	-0.316731	3.49422e-05
0.9825	0.00751848	-0.315344	3.42993e-05
0.9835	0.00743254	-0.313958	3.36668e-05
0.9845	0.00734731	-0.312571	3.30445e-05
0.9855	0.00726279	-0.311184	3.24325e-05
0.9865	0.00717897	-0.309798	3.18304e-05
0.9875	0.00709584	-0.308411	3.12382e-05
0.9885	0.00701341	-0.307025	3.06557e-05
0.9895	0.00693168	-0.305638	3.00828e-05
0.9905	0.00685063	-0.304252	2.95194e-05
0.9915	0.00677027	-0.302865	2.89654e-05
0.9925	0.00669059	-0.301479	2.84205e-05
0.9935	0.00661159	-0.300092	2.78847e-05
0.9945	0.00653327	-0.298706	2.73578e-05
0.9955	0.00645563	-0.297319	2.68398e-05
0.9965	0.00637865	-0.295933	2.63304e-05
0.9975	0.00630234	-0.294546	2.58296e-05
0.9985	0.0062267	-0.29316	2.53373e-05
0.9995	0.00615172	-0.291773	2.48533e-05
1.0005	0.00607739	-0.290386	2.43775e-05
1.0015	0.00600372	-0.289	2.39098e-05
1.0025	0.00593071	-0.287613	2.345e-05
1.0035	0.00585834	-0.286226	2.29982e-05
1.0045	0.00578661	-0.28484	2.2554e-05
1.0055	0.00571553	-0.283453	2.21175e-05
1.0065	0.00564508	-0.282066	2.16885e-05
1.0075	0.00557527	-0.280679	2.1267e-05
1.0085	0.0055061	-0.279292	2.08527e-05
1.0095	0.00543755	-0.277905	2.04456e-05
1.0105	0.00536962	-0.276518	2.00456e-05
1.0115	0.00530232	-0.275131	1.96526e-05
1.0125	0.00523564	-0.273743	1.92665e-05
1.0135	0.00516957	-0.272356	1.88871e-05
1.0145	0.00510411	-0.270968	1.85144e-05
1.0155	0.00503926	-0.269581	1.81483e-05
1.0165	0.00497501	-0.268193	1.77887e-05
1.0175	0.00491137	-0.266805	1.74355e-05
1.0185	0.00484832	-0.265417	1.70885e-05
1.0195	0.00478587	-0.264029	1.67478e-05
1.0205	0.00472401	-0.262641	1.64131e-05
1.0215	0.00466274	-0.261253	1.60844e-05
1.0225	0.00460205	-0.259864	1.57617e-05
1.0235	0.00454194	-0.258476	1.54447e-05
1.0245	0.00448241	-0.257087	1.51335e-05
1.0255	0.00442346	-0.255698	1.48279e-05
1.0265	0.00436507	-0.254309	1.45279e-05
1.0275	0.00430725	-0.25292	1.42334e-05
1.0285	0.00425	-0.251531	1.39442e-05
1.0295	0.0041933	-0.250141	1.36604e-05
1.0305	0.00413717	-0.248752	1.33817e-05
1.0315	0.00408158	-0.247362	1.31082e-05
1.0325	0.00402655	-0.245972	1.28398e-05
1.0335	0.00397207	-0.244581	1.25763e-05
1.0345	0.00391813	-0.243191	1.23178e-05
1.0355	0.00386473	-0.2418	1.2064e-05
1.0365	0.00381186	-0.240409	1.1815e-05
1.0375	0.00375954	-0.239018	1.15707e-05
1.0385	0.00370774	-0.237627	1.13309e-05
1.0395	0.00365647	-0.236235	1.10957e-05
1.0405	0.00360573	-0.234843	1.08649e-05
1.0415	0.00355551	-0.233451	1.06385e-05
1.0425	0.00350581	-0.232059	1.04164e-05
1.0435	0.00345662	-0.230667	1.01986e-05
1.0445	0.00340795	-0.229274	9.98489e-06
1.0455	0.00335979	-0.227881	9.7753e-06
1.0465	0.00331213	-0.226487	9.56974e-06
1.0475	0.00326498	-0.225093	9.36814e-06
1.0485	0.00321833	-0.223699	9.17045e-06
1.0495	0.00317217	-0.222305	8.97659e-06
1.0505	0.00312652	-0.220911	8.7865e-06
1.0515	0.00308135	-0.219516	8.60012e-06
1.0525	0.00303668	-0.21812	8.41739e-06
1.0535	0.00299249	-0.216725	8.23824e-06
1.0545	0.00294879	-0.215329	8.06262e-06
1.0555	0.00290556	-0.213932	7.89046e-06
1.0565	0.00286282	-0.212536	7.72171e-06
1.0575	0.00282055	-0.211139	7.5563e-06
1.0585	0.00277875	-0.209741	7.39418e-06
1.0595	0.00273742	-0.208344	7.2353e-06
1.0605	0.00269656	-0.206946	7.07959e-06
1.0615	0.00265617	-0.205547	6.927e-06
1.0625	0.00261623	-0.204148	6.77747e-06
1.0635	0.00257675	-0.202749	6.63096e-06
1.0645	0.00253773	-0.20135	6.4874e-06
1.0655	0.00249916	-0.19995	6.34674e-06
1.0665	0.00246104	-0.198549	6.20894e-06
1.0675	0.00242337	-0.197149	6.07393e-06
1.0685	0.00238614	-0.195748	5.94168e-06
1.0695	0.00234935	-0.194346	5.81213e-06
1.0705	0.002313	-0.192945	5.68523e-06
1.0715	0.00227708	-0.191542	5.56093e-06
1.0725	0.0022416	-0.19014	5.43919e-06
1.0735	0.00220655	-0.188737	5.31996e-06
1.0745	0.00217192	-0.187334	5.20319e-06
1.0755	0.00213772	-0.18593	5.08884e-06
1.0765	0.00210394	-0.184526	4.97687e-06
1.0775	0.00207058	-0.183122	4.86722e-06
1.0785	0.00203764	-0.181717	4.75987e-06
1.0795	0.00200511	-0.180312	4.65475e-06
1.0805	0.00197299	-0.178906	4.55184e-06
1.0815	0.00194128	-0.1775	4.45109e-06
1.0825	0.00190997	-0.176094	4.35246e-06
1.0835	0.00187907	-0.174687	4.25591e-06
1.0845	0.00184857	-0.17328	4.16141e-06
1.0855	0.00181846	-0.171872	4.0689e-06
1.0865	0.00178875	-0.170464	3.97836e-06
1.0875	0.00175943	-0.169056	3.88975e-06
1.0885	0.0017305	-0.167647	3.80302e-06
1.0895	0.00170195	-0.166238	3.71815e-06
1.0905	0.00167379	-0.164828	3.63509e-06
1.0915	0.001646	-0.163419	3.55381e-06
1.0925	0.0016186	-0.162008	3.47429e-06
1.0935	0.00159156	-0.160598	3.39647e-06
1.0945	0.0015649	-0.159186	3.32033e-06
1.0955	0.0015386	-0.157775	3.24584e-06
1.0965	0.00151267	-0.156363	3.17296e-06
1.0975	0.00148711	-0.154951	3.10166e-06
1.0985	0.0014619	-0.153538	3.03191e-06
1.0995	0.00143704	-0.152125	2.96368e-06
1.1005	0.00141254	-0.150712	2.89694e-06
1.1015	0.00138839	-0.149298	2.83165e-06
1.1025	0.00136459	-0.147884	2.76779e-06
1.1035	0.00134112	-0.146469	2.70534e-06
1.1045	0.001318	-0.145054	2.64425e-06
1.1055	0.00129522	-0.143639	2.58451e-06
1.1065	0.00127277	-0.142223	2.52609e-06
1.1075	0.00125065	-0.140807	2.46895e-06
1.1085	0.00122886	-0.13939	2.41308e-06
1.1095	0.0012074	-0.137973	2.35845e-06
1.1105	0.00118625	-0.136556	2.30502e-06
1.1115	0.00116543	-0.135138	2.25279e-06
1.1125	0.00114492	-0.13372	2.20171e-06
1.1135	0.00112472	-0.132301	2.15178e-06
1.1145	0.00110483	-0.130882	2.10295e-06
1.1155	0.00108525	-0.129463	2.05522e-06
1.1165	0.00106597	-0.128043	2.00856e-06
1.1175	0.00104699	-0.126623	1.96294e-06
1.1185	0.0010283	-0.125202	1.91835e-06
1.1195	0.00100991	-0.123781	1.87476e-06
1.1205	0.000991808	-0.12236	1.83215e-06
1.1215	0.000973992	-0.120938	1.7905e-06
1.1225	0.00095646	-0.119516	1.74979e-06
1.1235	0.000939208	-0.118093	1.70999e-06
1.1245	0.000922232	-0.11667	1.6711e-06
1.1255	0.00090553	-0.115247	1.63309e-06
1.1265	0.000889099	-0.113823	1.59594e-06
1.1275	0.000872935	-0.112398	1.55964e-06
1.1285	0.000857034	-0.110974	1.52416e-06
1.1295	0.000841395	-0.109548	1.48948e-06
1.1305	0.000826013	-0.108123	1.4556e-06
1.1315	0.000810885	-0.106697	1.42249e-06
1.1325	0.000796008	-0.10527	1.39013e-06
1.1335	0.000781379	-0.103843	1.35851e-06
1.1345	0.000766994	-0.102416	1.32762e-06
1.1355	0.000752851	-0.100988	1.29743e-06
1.1365	0.000738946	-0.0995596	1.26793e-06
1.1375	0.000725277	-0.0981309	1.23911e-06
1.1385	0.000711839	-0.0967017	1.21094e-06
1.1395	0.00069863	-0.095272	1.18343e-06
1.1405	0.000685647	-0.0938419	1.15654e-06
1.1415	0.000672886	-0.0924114	1.13027e-06
1.1425	0.000660345	-0.0909804	1.10461e-06
1.1435	0.00064802	-0.089549	1.07953e-06
1.1445	0.000635909	-0.0881171	1.05503e-06
1.1455	0.000624007	-0.0866848	1.0311e-06
1.1465	0.000612313	-0.085252	1.00772e-06
1.1475	0.000600824	-0.0838188	9.8487e-07
1.1485	0.000589535	-0.0823851	9.62551e-07
1.1495	0.000578445	-0.080951	9.40746e-07
1.1505	0.00056755	-0.0795164	9.19443e-07
1.1515	0.000556848	-0.0780814	8.98632e-07
1.1525	0.000546335	-0.0766459	8.783e-07
1.1535	0.000536008	-0.07521	8.58437e-07
1.1545	0.000525866	-0.0737737	8.39032e-07
1.1555	0.000515905	-0.0723368	8.20075e-07
1.1565	0.000506121	-0.0708996	8.01555e-07
1.1575	0.000496514	-0.0694619	7.83462e-07
1.1585	0.000487078	-0.0680238	7.65787e-07
1.1595	0.000477813	-0.0665852	7.48519e-07
1.1605	0.000468715	-0.0651462	7.3165e-07
1.1615	0.000459782	-0.0637067	7.1517e-07
1.1625	0.000451011	-0.0622669	6.9907e-07
1.1635	0.000442399	-0.0608265	6.83342e-07
1.1645	0.000433944	-0.0593858	6.67976e-07
1.1655	0.000425643	-0.0579446	6.52965e-07
1.1665	0.000417494	-0.056503	6.38299e-07
1.1675	0.000409494	-0.0550609	6.23972e-07
1.1685	0.000401641	-0.0536185	6.09975e-07
1.1695	0.000393932	-0.0521755	5.96301e-07
1.1705	0.000386365	-0.0507322	5.82941e-07
1.1715	0.000378935	-0.0492889	5.69882e-07
1.1725	0.000371641	-0.0478453	5.57121e-07
1.1735	0.000364482	-0.0464013	5.44653e-07
1.1745	0.000357456	-0.0449568	5.32472e-07
1.1755	0.000350561	-0.043512	5.20572e-07
1.1765	0.000343793	-0.0420668	5.08945e-07
1.1775	0.000337152	-0.0406212	4.97586e-07
1.1785	0.000330635	-0.0391752	4.86487e-07
1.1795	0.000324239	-0.0377288	4.75644e-07
1.1805	0.000317963	-0.036282	4.65049e-07
1.1815	0.000311805	-0.0348348	4.54697e-07
1.1825	0.000305762	-0.0333872	4.44583e-07
1.1835	0.000299833	-0.0319393	4.34701e-07
1.1845	0.000294015	-0.030491	4.25044e-07
1.1855	0.000288307	-0.0290423	4.15609e-07
1.1865	0.000282706	-0.0275932	4.0639e-07
1.1875	0.000277212	-0.0261438	3.97382e-07
1.1885	0.00027182	-0.024694	3.8858e-07
1.1895	0.000266531	-0.0232438	3.79978e-07
1.1905	0.000261342	-0.0217933	3.71573e-07
1.1915	0.000256252	-0.0203424	3.6336e-07
1.1925	0.000251257	-0.0188912	3.55334e-07
1.1935	0.000246358	-0.0174396	3.47491e-07
1.1945	0.000241552	-0.0159877	3.39826e-07
1.1955	0.000236837	-0.0145354	3.32336e-07
1.1965	0.000232212	-0.0130828	3.25016e-07
1.1975	0.000227675	-0.0116299	3.17862e-07
1.1985	0.000223225	-0.0101766	3.10871e-07
1.1995	0.000218859	-0.00872299	3.04038e-07
1.2005	0.000214577	-0.00726906	2.9736e-07
1.2015	0.000210377	-0.0058148	2.90833e-07
1.2025	0.000206257	-0.00436023	2.84454e-07
1.2035	0.000202216	-0.00290535	2.78219e-07
1.2045	0.000198252	-0.00145015	2.72125e-07
1.2055	0.000194365	5.34688e-06	2.66168e-07
1.2065	0.000190553	0.00146116	2.60346e-07
1.2075	0.000186815	0.00291729	2.54655e-07
1.2085	0.000183149	0.00437372	2.49093e-07
1.2095	0.000179552	0.00583046	2.43655e-07
1.2105	0.000176025	0.00728751	2.38339e-07
1.2115	0.000172566	0.00874485	2.33143e-07
1.2125	0.000169173	0.0102025	2.28064e-07
1.2135	0.000165846	0.0116604	2.23098e-07
1.2145	0.000162582	0.0131186	2.18244e-07
1.2155	0.000159381	0.0145771	2.13498e-07
1.2165	0.000156242	0.0160359	2.08858e-07
1.2175	0.000153164	0.0174949	2.04322e-07
1.2185	0.000150144	0.0189542	1.99887e-07
1.2195	0.000147183	0.0204138	1.95551e-07
1.2205	0.000144279	0.0218736	1.91311e-07
1.2215	0.000141431	0.0233337	1.87166e-07
1.2225	0.000138638	0.024794	1.83113e-07
1.2235	0.000135899	0.0262545	1.7915e-07
1.2245	0.000133213	0.0277153	1.75275e-07
1.2255	0.000130579	0.0291764	1.71486e-07
1.2265	0.000127996	0.0306376	1.67781e-07
1.2275	0.000125462	0.0320991	1.64157e-07
1.2285	0.000122978	0.0335608	1.60614e-07
1.2295	0.000120542	0.0350228	1.57149e-07
1.2305	0.000118152	0.0364849	1.5376e-07
1.2315	0.000115809	0.0379472	1.50446e-07
1.2325	0.000113512	0.0394098	1.47205e-07
1.2335	0.000111259	0.0408725	1.44036e-07
1.2345	0.000109049	0.0423354	1.40936e-07
1.2355	0.000106883	0.0437985	1.37904e-07
1.2365	0.000104758	0.0452618	1.34938e-07
1.2375	0.000102676	0.0467247	1.3204e-07
1.2385	0.000100636	0.0481867	1.29211e-07
1.2395	9.86363e-05	0.0496489	1.26443e-07
1.2405	9.6675e-05	0.0511113	1.23735e-07
1.2415	9.47517e-05	0.052574	1.21086e-07
1.2425	9.28655e-05	0.0540369	1.18494e-07
1.2435	9.10159e-05	0.0555001	1.15958e-07
1.2445	8.92021e-05	0.0569635	1.13477e-07
1.2455	8.74234e-05	0.0584271	1.1105e-07
1.2465	8.56791e-05	0.0598909	1.08675e-07
1.2475	8.39686e-05	0.0613549	1.06351e-07
1.2485	8.22913e-05	0.0628191	1.04077e-07
1.2495	8.06464e-05	0.0642836	1.01852e-07
1.2505	7.90335e-05	0.0657482	9.9675e-08
1.2515	7.74518e-05	0.067213	9.75448e-08
1.2525	7.59008e-05	0.068678	9.54602e-08
1.2535	7.43799e-05	0.0701432	9.34204e-08
1.2545	7.28885e-05	0.0716086	9.14243e-08
1.2555	7.1426e-05	0.0730741	8.9471e-08
1.2565	6.99919e-05	0.0745399	8.75595e-08
1.2575	6.85857e-05	0.0760057	8.56889e-08
1.2585	6.72068e-05	0.0774717	8.38583e-08
1.2595	6.58547e-05	0.0789379	8.20668e-08
1.2605	6.45289e-05	0.0804042	8.03135e-08
1.2615	6.32289e-05	0.0818707	7.85976e-08
1.2625	6.19541e-05	0.0833373	7.69183e-08
1.2635	6.07041e-05	0.084804	7.52748e-08
1.2645	5.94785e-05	0.0862709	7.36663e-08
1.2655	5.82767e-05	0.0877379	7.2092e-08
1.2665	5.70983e-05	0.089205	7.05511e-08
1.2675	5.59429e-05	0.0906722	6.90431e-08
1.2685	5.481e-05	0.0921395	6.7567e-08
1.2695	5.36992e-05	0.093607	6.61223e-08
1.2705	5.261e-05	0.0950745	6.47082e-08
1.2715	5.15421e-05	0.0965421	6.33242e-08
1.2725	5.0495e-05	0.0980098	6.19694e-08
1.2735	4.94684e-05	0.0994776	6.06434e-08
1.2745	4.84618e-05	0.100945	5.93455e-08
1.2755	4.74749e-05	0.102413	5.8075e-08
1.2765	4.65073e-05	0.103881	5.68314e-08
1.2775	4.55586e-05	0.105349	5.56141e-08
1.2785	4.46284e-05	0.106818	5.44225e-08
1.2795	4.37165e-05	0.108286	5.32561e-08
1.2805	4.28224e-05	0.109754	5.21144e-08
1.2815	4.19458e-05	0.111222	5.09967e-08
1.2825	4.10864e-05	0.112691	4.99026e-08
1.2835	4.02439e-05	0.114159	4.88317e-08
1.2845	3.94179e-05	0.115627	4.77833e-08
1.2855	3.86081e-05	0.117096	4.6757e-08
1.2865	3.78142e-05	0.118564	4.57524e-08
1.2875	3.70359e-05	0.120033	4.47689e-08
1.2885	3.62729e-05	0.121501	4.38062e-08
1.2895	3.55249e-05	0.12297	4.28637e-08
1.2905	3.47917e-05	0.124438	4.19411e-08
1.2915	3.40728e-05	0.125907	4.10379e-08
1.2925	3.33682e-05	0.127375	4.01537e-08
1.2935	3.26774e-05	0.128844	3.92882e-08
1.2945	3.20003e-05	0.130312	3.84408e-08
1.2955	3.13365e-05	0.131781	3.76114e-08
1.2965	3.06859e-05	0.133249	3.67993e-08
1.2975	3.00481e-05	0.134718	3.60044e-08
1.2985	2.94229e-05	0.136186	3.52261e-08
1.2995	2.88101e-05	0.137654	3.44643e-08
1.3005	2.82094e-05	0.139123	3.37185e-08
1.3015	2.76206e-05	0.140591	3.29883e-08
1.3025	2.70436e-05	0.142059	3.22736e-08
1.3035	2.64779e-05	0.143528	3.15738e-08
1.3045	2.59235e-05	0.144996	3.08889e-08
1.3055	2.53801e-05	0.146464	3.02183e-08
1.3065	2.48476e-05	0.147932	2.95618e-08
1.3075	2.43256e-05	0.1494	2.89191e-08
1.3085	2.3814e-05	0.150868	2.829e-08
1.3095	2.33127e-05	0.152336	2.76742e-08
1.3105	2.28213e-05	0.153803	2.70712e-08
1.3115	2.23397e-05	0.155271	2.6481e-08
1.3125	2.18678e-05	0.156739	2.59033e-08
1.3135	2.14053e-05	0.158206	2.53377e-08
1.3145	2.09521e-05	0.159674	2.4784e-08
1.3155	2.05079e-05	0.161141	2.4242e-08
1.3165	2.00727e-05	0.162608	2.37114e-08
1.3175	1.96462e-05	0.164076	2.3192e-08
1.3185	1.92283e-05	0.165543	2.26836e-08
1.3195	1.88187e-05	0.16701	2.21859e-08
1.3205	1.84174e-05	0.168477	2.16987e-08
1.3215	1.80242e-05	0.169943	2.12218e-08
1.3225	1.7639e-05	0.17141	2.0755e-08
1.3235	1.72615e-05	0.172877	2.02981e-08
1.3245	1.68916e-05	0.174343	1.98508e-08
1.3255	1.65292e-05	0.175809	1.9413e-08
1.3265	1.61741e-05	0.177275	1.89844e-08
1.3275	1.58263e-05	0.178741	1.85649e-08
1.3285	1.54855e-05	0.180207	1.81543e-08
1.3295	1.51516e-05	0.181673	1.77525e-08
1.3305	1.48245e-05	0.183139	1.73591e-08
1.3315	1.4504e-05	0.184604	1.69741e-08
1.3325	1.41901e-05	0.18607	1.65972e-08
1.3335	1.38826e-05	0.187535	1.62284e-08
1.3345	1.35814e-05	0.189	1.58674e-08
1.3355	1.32863e-05	0.190465	1.5514e-08
1.3365	1.29972e-05	0.19193	1.51682e-08
1.3375	1.27141e-05	0.193394	1.48298e-08
1.3385	1.24368e-05	0.194859	1.44986e-08
1.3395	1.21652e-05	0.196323	1.41744e-08
1.3405	1.18991e-05	0.197787	1.38571e-08
1.3415	1.16385e-05	0.199251	1.35467e-08
1.3425	1.13833e-05	0.200715	1.32428e-08
1.3435	1.11334e-05	0.202179	1.29455e-08
1.3445	1.08886e-05	0.203642	1.26545e-08
1.3455	1.06488e-05	0.205105	1.23697e-08
1.3465	1.04141e-05	0.206568	1.20911e-08
1.3475	1.01842e-05	0.208031	1.18184e-08
1.3485	9.95902e-06	0.209494	1.15516e-08
1.3495	9.73855e-06	0.210957	1.12905e-08
1.3505	9.52267e-06	0.212419	1.1035e-08
1.3515	9.31129e-06	0.213881	1.0785e-08
1.3525	9.10431e-06	0.215343	1.05404e-08
1.3535	8.90165e-06	0.216805	1.0301e-08
1.3545	8.70322e-06	0.218267	1.00669e-08
1.3555	8.50895e-06	0.219728	9.83776e-09
1.3565	8.31874e-06	0.221189	9.61359e-09
1.3575	8.13253e-06	0.22265	9.39428e-09
1.3585	7.95022e-06	0.224111	9.17971e-09
1.3595	7.77175e-06	0.225572	8.96979e-09
1.3605	7.59704e-06	0.227032	8.76442e-09
1.3615	7.42602e-06	0.228492	8.56351e-09
1.3625	7.2586e-06	0.229952	8.36697e-09
1.3635	7.09472e-06	0.231412	8.17471e-09
1.3645	6.93432e-06	0.232871	7.98662e-09
1.3655	6.77731e-06	0.234331	7.80264e-09
1.3665	6.62363e-06	0.23579	7.62268e-09
1.3675	6.47323e-06	0.237249	7.44664e-09
1.3685	6.32602e-06	0.238707	7.27445e-09
1.3695	6.18195e-06	0.240166	7.10603e-09
1.3705	6.04096e-06	0.241624	6.9413e-09
1.3715	5.90298e-06	0.243082	6.78018e-09
1.3725	5.76796e-06	0.24454	6.6226e-09
1.3735	5.63582e-06	0.245997	6.46849e-09
1.3745	5.50653e-06	0.247454	6.31776e-09
1.3755	5.38001e-06	0.248911	6.17036e-09
1.3765	5.25622e-06	0.250368	6.02621e-09
1.3775	5.1351e-06	0.251825	5.88524e-09
1.3785	5.01659e-06	0.253281	5.74738e-09
1.3795	4.90064e-06	0.254737	5.61258e-09
1.3805	4.7872e-06	0.256193	5.48076e-09
1.3815	4.67623e-06	0.257649	5.35187e-09
1.3825	4.56766e-06	0.259104	5.22584e-09
1.3835	4.46145e-06	0.260559	5.10262e-09
1.3845	4.35756e-06	0.262014	4.98213e-09
1.3855	4.25593e-06	0.263469	4.86433e-09
1.3865	4.15652e-06	0.264923	4.74916e-09
1.3875	4.05929e-06	0.266377	4.63657e-09
1.3885	3.96419e-06	0.267831	4.52649e-09
1.3895	3.87117e-06	0.269285	4.41888e-09
1.3905	3.7802e-06	0.270738	4.31368e-09
1.3915	3.69123e-06	0.272191	4.21084e-09
1.3925	3.60422e-06	0.273644	4.11032e-09
1.3935	3.51913e-06	0.275097	4.01206e-09
1.3945	3.43593e-06	0.276549	3.91602e-09
1.3955	3.35456e-06	0.278001	3.82214e-09
1.3965	3.275e-06	0.279453	3.73038e-09
1.3975	3.19721e-06	0.280905	3.6407e-09
1.3985	3.12114e-06	0.282356	3.55306e-09
1.3995	3.04678e-06	0.283807	3.4674e-09
1.4005	2.97407e-06	0.285258	3.38369e-09
1.4015	2.90298e-06	0.286708	3.30188e-09
1.4025	2.83349e-06	0.288159	3.22194e-09
1.4035	2.76556e-06	0.289608	3.14382e-09
1.4045	2.69915e-06	0.291058	3.06749e-09
1.4055	2.63423e-06	0.292508	2.9929e-09
1.4065	2.57078e-06	0.293957	2.92002e-09
1.4075	2.50876e-06	0.295406	2.84881e-09
1.4085	2.44814e-06	0.296854	2.77924e-09
1.4095	2.38889e-06	0.298303	2.71127e-09
1.4105	2.33098e-06	0.299751	2.64486e-09
1.4115	2.27439e-06	0.301198	2.57999e-09
1.4125	2.21909e-06	0.302646	2.51661e-09
1.4135	2.16505e-06	0.304093	2.4547e-09
1.4145	2.11224e-06	0.30554	2.39423e-09
1.4155	2.06063e-06	0.306987	2.33516e-09
1.4165	2.01021e-06	0.308433	2.27746e-09
1.4175	1.96094e-06	0.309879	2.2211e-09
1.4185	1.91281e-06	0.311325	2.16606e-09
1.4195	1.86578e-06	0.312771	2.1123e-09
1.4205	1.81984e-06	0.314216	2.0598e-09
1.4215	1.77495e-06	0.315661	2.00853e-09
1.4225	1.73111e-06	0.317106	1.95845e-09
1.4235	1.68827e-06	0.31855	1.90956e-09
1.4245	1.64644e-06	0.319994	1.86181e-09
1.4255	1.60557e-06	0.321438	1.81519e-09
1.4265	1.56565e-06	0.322882	1.76966e-09
1.4275	1.52667e-06	0.324325	1.72522e-09
1.4285	1.48859e-06	0.325768	1.68182e-09
1.4295	1.45141e-06	0.327211	1.63945e-09
1.4305	1.41509e-06	0.328653	1.59808e-09
1.4315	1.37963e-06	0.330095	1.5577e-09
1.4325	1.345e-06	0.331537	1.51828e-09
1.4335	1.31119e-06	0.332978	1.4798e-09
1.4345	1.27817e-06	0.33442	1.44224e-09
1.4355	1.24594e-06	0.335861	1.40557e-09
1.4365	1.21446e-06	0.337301	1.36978e-09
1.4375	1.18374e-06	0.338742	1.33485e-09
1.4385	1.15374e-06	0.340182	1.30076e-09
1.4395	1.12445e-06	0.341621	1.26749e-09
1.4405	1.09587e-06	0.343061	1.23502e-09
1.4415	1.06796e-06	0.3445	1.20334e-09
1.4425	1.04072e-06	0.345939	1.17242e-09
1.4435	1.01413e-06	0.347378	1.14225e-09
1.4445	9.88185e-07	0.348816	1.11281e-09
1.4455	9.62859e-07	0.350254	1.08408e-09
1.4465	9.38142e-07	0.351692	1.05605e-09
1.4475	9.14021e-07	0.353129	1.02871e-09
1.4485	8.90483e-07	0.354566	1.00203e-09
1.4495	8.67513e-07	0.356003	9.76003e-10
1.4505	8.451e-07	0.357439	9.50614e-10
1.4515	8.23231e-07	0.358876	9.25847e-10
1.4525	8.01893e-07	0.360311	9.01688e-10
1.4535	7.81075e-07	0.361747	8.78124e-10
1.4545	7.60765e-07	0.363182	8.55139e-10
1.4555	7.40951e-07	0.364617	8.32721e-10
1.4565	7.21621e-07	0.366052	8.10857e-10
1.4575	7.02766e-07	0.367486	7.89535e-10
1.4585	6.84374e-07	0.368921	7.6874e-10
1.4595	6.66434e-07	0.370354	7.48462e-10
1.4605	6.48936e-07	0.371788	7.28688e-10
1.4615	6.3187e-07	0.373221	7.09407e-10
1.4625	6.15225e-07	0.374654	6.90606e-10
1.4635	5.98994e-07	0.376087	6.72276e-10
1.4645	5.83164e-07	0.377519	6.54403e-10
1.4655	5.67728e-07	0.378951	6.36979e-10
1.4665	5.52677e-07	0.380383	6.19993e-10
1.4675	5.38001e-07	0.381814	6.03434e-10
1.4685	5.23691e-07	0.383245	5.87291e-10
1.4695	5.0974e-07	0.384676	5.71556e-10
1.4705	4.96138e-07	0.386106	5.56219e-10
1.4715	4.82877e-07	0.387537	5.4127e-10
1.4725	4.69951e-07	0.388966	5.267e-10
1.4735	4.5735e-07	0.390396	5.12499e-10
1.4745	4.45067e-07	0.391825	4.9866e-10
1.4755	4.33094e-07	0.393254	4.85174e-10
1.4765	4.21425e-07	0.394683	4.72032e-10
1.4775	4.10051e-07	0.396111	4.59226e-10
1.4785	3.98967e-07	0.397539	4.46747e-10
1.4795	3.88165e-07	0.398967	4.34589e-10
1.4805	3.77639e-07	0.400395	4.22743e-10
1.4815	3.67381e-07	0.401822	4.11202e-10
1.4825	3.57386e-07	0.403249	3.99958e-10
1.4835	3.47647e-07	0.404675	3.89005e-10
1.4845	3.38158e-07	0.406101	3.78334e-10
1.4855	3.28913e-07	0.407527	3.6794e-10
1.4865	3.19906e-07	0.408953	3.57816e-10
1.4875	3.11132e-07	0.410378	3.47955e-10
1.4885	3.02584e-07	0.411803	3.3835e-10
1.4895	2.94258e-07	0.413228	3.28996e-10
1.4905	2.86148e-07	0.414652	3.19887e-10
1.4915	2.78249e-07	0.416076	3.11015e-10
1.4925	2.70555e-07	0.4175	3.02376e-10
1.4935	2.63062e-07	0.418924	2.93964e-10
1.4945	2.55765e-07	0.420347	2.85773e-10
1.4955	2.48659e-07	0.42177	2.77797e-10
1.4965	2.41739e-07	0.423192	2.70032e-10
1.4975	2.35001e-07	0.424615	2.62472e-10
1.4985	2.2844e-07	0.426037	2.55112e-10
1.4995	2.22051e-07	0.427458	2.47947e-10
1.5005	2.15832e-07	0.42888	2.40973e-10
1.5015	2.09777e-07	0.430301	2.34184e-10
1.5025	2.03882e-07	0.431721	2.27576e-10
1.5035	1.98144e-07	0.433142	2.21144e-10
1.5045	1.92558e-07	0.434562	2.14884e-10
1.5055	1.87121e-07	0.435982	2.08792e-10
1.5065	1.81828e-07	0.437401	2.02863e-10
1.5075	1.76678e-07	0.43882	1.97093e-10
1.5085	1.71665e-07	0.440239	1.91479e-10
1.5095	1.66786e-07	0.441658	1.86016e-10
1.5105	1.62039e-07	0.443076	1.807e-10
1.5115	1.57419e-07	0.444494	1.75528e-10
1.5125	1.52923e-07	0.445912	1.70496e-10
1.5135	1.48549e-07	0.447329	1.65601e-10
1.5145	1.44294e-07	0.448746	1.60839e-10
1.5155	1.40153e-07	0.450163	1.56207e-10
1.5165	1.36125e-07	0.45158	1.517e-10
1.5175	1.32206e-07	0.452996	1.47317e-10
1.5185	1.28394e-07	0.454412	1.43054e-10
1.5195	1.24686e-07	0.455827	1.38908e-10
1.5205	1.21079e-07	0.457242	1.34875e-10
1.5215	1.17571e-07	0.458657	1.30954e-10
1.5225	1.14159e-07	0.460072	1.2714e-10
1.5235	1.10841e-07	0.461486	1.23432e-10
1.5245	1.07614e-07	0.4629	1.19826e-10
1.5255	1.04476e-07	0.464314	1.1632e-10
1.5265	1.01425e-07	0.465727	1.12911e-10
1.5275	9.84579e-08	0.467141	1.09597e-10
1.5285	9.5573e-08	0.468553	1.06375e-10
1.5295	9.27682e-08	0.469966	1.03242e-10
1.5305	9.00413e-08	0.471378	1.00198e-10
1.5315	8.73903e-08	0.47279	9.72381e-11
1.5325	8.48133e-08	0.474202	9.43614e-11
1.5335	8.23082e-08	0.475613	9.15653e-11
1.5345	7.98733e-08	0.477024	8.88479e-11
1.5355	7.75066e-08	0.478434	8.6207e-11
1.5365	7.52063e-08	0.479845	8.36405e-11
1.5375	7.29708e-08	0.481255	8.11465e-11
1.5385	7.07982e-08	0.482665	7.87231e-11
1.5395	6.86869e-08	0.484074	7.63683e-11
1.5405	6.66354e-08	0.485483	7.40804e-11
1.5415	6.46419e-08	0.486892	7.18575e-11
1.5425	6.2705e-08	0.488301	6.9698e-11
1.5435	6.08231e-08	0.489709	6.76e-11
1.5445	5.89947e-08	0.491117	6.5562e-11
1.5455	5.72185e-08	0.492524	6.35823e-11
1.5465	5.54931e-08	0.493932	6.16594e-11
1.5475	5.3817e-08	0.495339	5.97917e-11
1.5485	5.21889e-08	0.496746	5.79778e-11
1.5495	5.06076e-08	0.498152	5.62161e-11
1.5505	4.90717e-08	0.499558	5.45052e-11
1.5515	4.75801e-08	0.500964	5.28439e-11
1.5525	4.61315e-08	0.502369	5.12306e-11
1.5535	4.47248e-08	0.503775	4.96641e-11
1.5545	4.33588e-08	0.505179	4.81432e-11
1.5555	4.20325e-08	0.506584	4.66665e-11
1.5565	4.07446e-08	0.507988	4.52328e-11
1.5575	3.94943e-08	0.509392	4.38411e-11
1.5585	3.82804e-08	0.510796	4.249e-11
1.5595	3.71019e-08	0.512199	4.11785e-11
1.5605	3.59579e-08	0.513603	3.99055e-11
1.5615	3.48474e-08	0.515005	3.86699e-11
1.5625	3.37695e-08	0.516408	3.74708e-11
1.5635	3.27233e-08	0.51781	3.63069e-11
1.5645	3.17079e-08	0.519212	3.51775e-11
1.5655	3.07224e-08	0.520613	3.40815e-11
1.5665	2.97661e-08	0.522015	3.3018e-11
1.5675	2.88381e-08	0.523416	3.1986e-11
1.5685	2.79376e-08	0.524816	3.09848e-11
1.5695	2.70638e-08	0.526217	3.00133e-11
1.5705	2.6216e-08	0.527617	2.90709e-11
1.5715	2.53935e-08	0.529017	2.81566e-11
1.5725	2.45955e-08	0.530416	2.72697e-11
1.5735	2.38214e-08	0.531815	2.64094e-11
1.5745	2.30705e-08	0.533214	2.55749e-11
1.5755	2.2342e-08	0.534613	2.47656e-11
1.5765	2.16355e-08	0.536011	2.39806e-11
1.5775	2.09503e-08	0.537409	2.32193e-11
1.5785	2.02857e-08	0.538807	2.24811e-11
1.5795	1.96412e-08	0.540204	2.17652e-11
1.5805	1.90161e-08	0.541601	2.1071e-11
1.5815	1.841e-08	0.542998	2.03979e-11
1.5825	1.78223e-08	0.544394	1.97453e-11
1.5835	1.72525e-08	0.54579	1.91126e-11
1.5845	1.67e-08	0.547186	1.84993e-11
1.5855	1.61644e-08	0.548582	1.79047e-11
1.5865	1.56452e-08	0.549977	1.73283e-11
1.5875	1.51418e-08	0.551372	1.67696e-11
1.5885	1.46539e-08	0.552767	1.6228e-11
1.5895	1.41809e-08	0.554161	1.57032e-11
1.5905	1.37225e-08	0.555555	1.51945e-11
1.5915	1.32783e-08	0.556949	1.47016e-11
1.5925	1.28477e-08	0.558343	1.42239e-11
1.5935	1.24305e-08	0.559736	1.3761e-11
1.5945	1.20261e-08	0.561129	1.33125e-11
1.5955	1.16343e-08	0.562521	1.28779e-11
1.5965	1.12547e-08	0.563914	1.24569e-11
1.5975	1.08869e-08	0.565306	1.2049e-11
1.5985	1.05306e-08	0.566697	1.16538e-11
1.5995	1.01854e-08	0.568089	1.1271e-11
1.6005	9.85097e-09	0.56948	1.09002e-11
1.6015	9.52703e-09	0.570871	1.05411e-11
1.6025	9.21326e-09	0.572261	1.01933e-11
1.6035	8.90935e-09	0.573651	9.85637e-12
1.6045	8.61501e-09	0.575041	9.53012e-12
1.6055	8.32995e-09	0.576431	9.21418e-12
1.6065	8.0539e-09	0.57782	8.90825e-12
1.6075	7.78658e-09	0.579209	8.61202e-12
1.6085	7.52773e-09	0.580598	8.3252e-12
1.6095	7.2771e-09	0.581986	8.0475e-12
1.6105	7.03444e-09	0.583375	7.77866e-12
1.6115	6.79951e-09	0.584762	7.5184e-12
1.6125	6.57207e-09	0.58615	7.26646e-12
1.6135	6.3519e-09	0.587537	7.02258e-12
1.6145	6.13878e-09	0.588924	6.78654e-12
1.6155	5.93249e-09	0.590311	6.55807e-12
1.6165	5.73283e-09	0.591697	6.33696e-12
1.6175	5.53958e-09	0.593083	6.12298e-12
1.6185	5.35257e-09	0.594469	5.9159e-12
1.6195	5.17159e-09	0.595855	5.71552e-12
1.6205	4.99645e-09	0.59724	5.52164e-12
1.6215	4.82699e-09	0.598625	5.33404e-12
1.6225	4.66303e-09	0.600009	5.15254e-12
1.6235	4.50439e-09	0.601394	4.97695e-12
1.6245	4.35091e-09	0.602778	4.80708e-12
1.6255	4.20244e-09	0.604161	4.64276e-12
1.6265	4.05881e-09	0.605545	4.48382e-12
1.6275	3.91987e-09	0.606928	4.33008e-12
1.6285	3.78549e-09	0.608311	4.18139e-12
1.6295	3.65551e-09	0.609693	4.03758e-12
1.6305	3.52981e-09	0.611076	3.89851e-12
1.6315	3.40824e-09	0.612458	3.76403e-12
1.6325	3.29068e-09	0.613839	3.63399e-12
1.6335	3.177e-09	0.615221	3.50824e-12
1.6345	3.06708e-09	0.616602	3.38667e-12
1.6355	2.9608e-09	0.617983	3.26913e-12
1.6365	2.85805e-09	0.619363	3.1555e-12
1.6375	2.75871e-09	0.620743	3.04565e-12
1.6385	2.66268e-09	0.622123	2.93946e-12
1.6395	2.56985e-09	0.623503	2.83682e-12
1.6405	2.48012e-09	0.624882	2.73762e-12
1.6415	2.39339e-09	0.626261	2.64174e-12
1.6425	2.30957e-09	0.62764	2.54908e-12
1.6435	2.22856e-09	0.629019	2.45953e-12
1.6445	2.15027e-09	0.630397	2.373e-12
1.6455	2.07462e-09	0.631775	2.28938e-12
1.6465	2.00152e-09	0.633152	2.20859e-12
1.6475	1.93089e-09	0.63453	2.13054e-12
1.6485	1.86265e-09	0.635907	2.05512e-12
1.6495	1.79671e-09	0.637284	1.98227e-12
1.6505	1.73302e-09	0.63866	1.9119e-12
1.6515	1.67149e-09	0.640036	1.84392e-12
1.6525	1.61206e-09	0.641412	1.77826e-12
1.6535	1.55465e-09	0.642788	1.71484e-12
1.6545	1.49921e-09	0.644163	1.65359e-12
1.6555	1.44566e-09	0.645538	1.59444e-12
1.6565	1.39394e-09	0.646913	1.53733e-12
1.6575	1.344e-09	0.648287	1.48217e-12
1.6585	1.29578e-09	0.649661	1.42891e-12
1.6595	1.24921e-09	0.651035	1.37749e-12
1.6605	1.20426e-09	0.652409	1.32785e-12
1.6615	1.16085e-09	0.653782	1.27992e-12
1.6625	1.11895e-09	0.655155	1.23366e-12
1.6635	1.0785e-09	0.656528	1.189e-12
1.6645	1.03945e-09	0.6579	1.14589e-12
1.6655	1.00176e-09	0.659273	1.10429e-12
1.6665	9.65383e-10	0.660644	1.06413e-12
1.6675	9.30273e-10	0.662016	1.02538e-12
1.6685	8.9639e-10	0.663387	9.87979e-13
1.6695	8.63692e-10	0.664758	9.51891e-13
1.6705	8.3214e-10	0.666129	9.1707e-13
1.6715	8.01695e-10	0.667499	8.83473e-13
1.6725	7.72319e-10	0.66887	8.51058e-13
1.6735	7.43978e-10	0.670239	8.19787e-13
1.6745	7.16637e-10	0.671609	7.89619e-13
1.6755	6.9026e-10	0.672978	7.60519e-13
1.6765	6.64817e-10	0.674347	7.32449e-13
1.6775	6.40275e-10	0.675716	7.05375e-13
1.6785	6.16604e-10	0.677085	6.79264e-13
1.6795	5.93774e-10	0.678453	6.54081e-13
1.6805	5.71757e-10	0.679821	6.29797e-13
1.6815	5.50524e-10	0.681188	6.06379e-13
1.6825	5.3005e-10	0.682556	5.83799e-13
1.6835	5.10308e-10	0.683923	5.62027e-13
1.6845	4.91273e-10	0.685289	5.41036e-13
1.6855	4.72921e-10	0.686656	5.208e-13
1.6865	4.55228e-10	0.688022	5.01291e-13
1.6875	4.38172e-10	0.689388	4.82486e-13
1.6885	4.21731e-10	0.690754	4.6436e-13
1.6895	4.05883e-10	0.692119	4.46888e-13
1.6905	3.90608e-10	0.693484	4.3005e-13
1.6915	3.75886e-10	0.694849	4.13822e-13
1.6925	3.61699e-10	0.696213	3.98183e-13
1.6935	3.48026e-10	0.697577	3.83113e-13
1.6945	3.34851e-10	0.698941	3.68592e-13
1.6955	3.22157e-10	0.700305	3.54602e-13
1.6965	3.09925e-10	0.701668	3.41122e-13
1.6975	2.98141e-10	0.703031	3.28136e-13
1.6985	2.86788e-10	0.704394	3.15626e-13
1.6995	2.75851e-10	0.705757	3.03575e-13
1.7005	2.65316e-10	0.707119	2.91967e-13
1.7015	2.55168e-10	0.708481	2.80787e-13
1.7025	2.45394e-10	0.709843	2.70019e-13
1.7035	2.35981e-10	0.711204	2.59649e-13
1.7045	2.26916e-10	0.712565	2.49663e-13
1.7055	2.18186e-10	0.713926	2.40047e-13
1.7065	2.0978e-10	0.715287	2.30787e-13
1.7075	2.01685e-10	0.716647	2.21872e-13
1.7085	1.93892e-10	0.718007	2.13289e-13
1.7095	1.86389e-10	0.719367	2.05026e-13
1.7105	1.79166e-10	0.720726	1.97071e-13
1.7115	1.72212e-10	0.722085	1.89414e-13
1.7125	1.65519e-10	0.723444	1.82044e-13
1.7135	1.59076e-10	0.724803	1.7495e-13
1.7145	1.52875e-10	0.726161	1.68123e-13
1.7155	1.46908e-10	0.727519	1.61552e-13
1.7165	1.41165e-10	0.728877	1.5523e-13
1.7175	1.35638e-10	0.730234	1.49146e-13
1.7185	1.3032e-10	0.731592	1.43291e-13
1.7195	1.25203e-10	0.732949	1.37659e-13
1.7205	1.2028e-10	0.734305	1.3224e-13
1.7215	1.15544e-10	0.735662	1.27027e-13
1.7225	1.10987e-10	0.737018	1.22012e-13
1.7235	1.06604e-10	0.738374	1.17188e-13
1.7245	1.02388e-10	0.739729	1.12549e-13
1.7255	9.83327e-11	0.741085	1.08086e-13
1.7265	9.44325e-11	0.74244	1.03794e-13
1.7275	9.06816e-11	0.743794	9.96672e-14
1.7285	8.70745e-11	0.745149	9.56984e-14
1.7295	8.36058e-11	0.746503	9.18821e-14
1.7305	8.02706e-11	0.747857	8.82128e-14
1.7315	7.70638e-11	0.749211	8.46849e-14
1.7325	7.39806e-11	0.750564	8.12932e-14
1.7335	7.10166e-11	0.751917	7.80328e-14
1.7345	6.81672e-11	0.75327	7.48986e-14
1.7355	6.54282e-11	0.754622	7.18859e-14
1.7365	6.27956e-11	0.755975	6.89904e-14
1.7375	6.02652e-11	0.757327	6.62074e-14
1.7385	5.78333e-11	0.758678	6.35329e-14
1.7395	5.54962e-11	0.76003	6.09628e-14
1.7405	5.32503e-11	0.761381	5.84931e-14
1.7415	5.10922e-11	0.762732	5.61201e-14
1.7425	4.90187e-11	0.764083	5.38402e-14
1.7435	4.70264e-11	0.765433	5.16497e-14
1.7445	4.51124e-11	0.766783	4.95454e-14
1.7455	4.32737e-11	0.768133	4.75239e-14
1.7465	4.15074e-11	0.769483	4.55821e-14
1.7475	3.98108e-11	0.770832	4.3717e-14
1.7485	3.81812e-11	0.772181	4.19257e-14
1.7495	3.66161e-11	0.77353	4.02054e-14
1.7505	3.5113e-11	0.774878	3.85533e-14
1.7515	3.36696e-11	0.776226	3.69669e-14
1.7525	3.22836e-11	0.777574	3.54435e-14
1.7535	3.09527e-11	0.778922	3.39809e-14
1.7545	2.96748e-11	0.780269	3.25767e-14
1.7555	2.8448e-11	0.781616	3.12285e-14
1.7565	2.72703e-11	0.782963	2.99344e-14
1.7575	2.61397e-11	0.78431	2.86921e-14
1.7585	2.50544e-11	0.785656	2.74997e-14
1.7595	2.40128e-11	0.787002	2.63552e-14
1.7605	2.3013e-11	0.788348	2.52568e-14
1.7615	2.20535e-11	0.789693	2.42028e-14
1.7625	2.11327e-11	0.791038	2.31912e-14
1.7635	2.02491e-11	0.792383	2.22206e-14
1.7645	1.94013e-11	0.793728	2.12893e-14
1.7655	1.85878e-11	0.795072	2.03958e-14
1.7665	1.78074e-11	0.796417	1.95386e-14
1.7675	1.70586e-11	0.797761	1.87163e-14
1.7685	1.63403e-11	0.799104	1.79274e-14
1.7695	1.56514e-11	0.800447	1.71708e-14
1.7705	1.49905e-11	0.801791	1.64451e-14
1.7715	1.43566e-11	0.803133	1.5749e-14
1.7725	1.37487e-11	0.804476	1.50815e-14
1.7735	1.31658e-11	0.805818	1.44414e-14
1.7745	1.26067e-11	0.80716	1.38276e-14
1.7755	1.20707e-11	0.808502	1.32391e-14
1.7765	1.15567e-11	0.809843	1.26749e-14
1.7775	1.10639e-11	0.811185	1.21339e-14
1.7785	1.05915e-11	0.812525	1.16153e-14
1.7795	1.01386e-11	0.813866	1.11182e-14
1.7805	9.70451e-12	0.815207	1.06417e-14
1.7815	9.2884e-12	0.816547	1.01849e-14
1.7825	8.88958e-12	0.817887	9.74721e-15
1.7835	8.50736e-12	0.819226	9.32771e-15
1.7845	8.14105e-12	0.820566	8.92571e-15
1.7855	7.79004e-12	0.821905	8.5405e-15
1.7865	7.45369e-12	0.823243	8.17141e-15
1.7875	7.13142e-12	0.824582	7.81777e-15
1.7885	6.82265e-12	0.82592	7.47898e-15
1.7895	6.52685e-12	0.827258	7.15441e-15
1.7905	6.24347e-12	0.828596	6.84351e-15
1.7915	5.97203e-12	0.829933	6.5457e-15
1.7925	5.71203e-12	0.831271	6.26046e-15
1.7935	5.463e-12	0.832608	5.98727e-15
1.7945	5.2245e-12	0.833944	5.72564e-15
1.7955	4.9961e-12	0.835281	5.4751e-15
1.7965	4.77739e-12	0.836617	5.2352e-15
1.7975	4.56796e-12	0.837953	5.00549e-15
1.7985	4.36743e-12	0.839288	4.78556e-15
1.7995	4.17545e-12	0.840624	4.575e-15
1.8005	3.99165e-12	0.841959	4.37343e-15
1.8015	3.8157e-12	0.843294	4.18048e-15
1.8025	3.64727e-12	0.844628	3.99578e-15
1.8035	3.48606e-12	0.845963	3.81901e-15
1.8045	3.33177e-12	0.847297	3.64982e-15
1.8055	3.1841e-12	0.848631	3.48791e-15
1.8065	3.04278e-12	0.849964	3.33297e-15
1.8075	2.90755e-12	0.851297	3.18471e-15
1.8085	2.77815e-12	0.85263	3.04285e-15
1.8095	2.65434e-12	0.853963	2.90712e-15
1.8105	2.53589e-12	0.855296	2.77727e-15
1.8115	2.42257e-12	0.856628	2.65306e-15
1.8125	2.31417e-12	0.85796	2.53423e-15
1.8135	2.21047e-12	0.859292	2.42058e-15
1.8145	2.11129e-12	0.860623	2.31187e-15
1.8155	2.01643e-12	0.861954	2.20791e-15
1.8165	1.92571e-12	0.863285	2.10848e-15
1.8175	1.83895e-12	0.864616	2.0134e-15
1.8185	1.75599e-12	0.865946	1.92249e-15
1.8195	1.67666e-12	0.867276	1.83556e-15
1.8205	1.60081e-12	0.868606	1.75246e-15
1.8215	1.5283e-12	0.869936	1.673e-15
1.8225	1.45898e-12	0.871265	1.59705e-15
1.8235	1.39271e-12	0.872594	1.52445e-15
1.8245	1.32937e-12	0.873923	1.45505e-15
1.8255	1.26882e-12	0.875252	1.38873e-15
1.8265	1.21096e-12	0.87658	1.32534e-15
1.8275	1.15566e-12	0.877908	1.26476e-15
1.8285	1.10281e-12	0.879236	1.20688e-15
1.8295	1.05231e-12	0.880564	1.15157e-15
1.8305	1.00406e-12	0.881891	1.09872e-15
1.8315	9.57963e-13	0.883218	1.04823e-15
1.8325	9.13921e-13	0.884545	9.99997e-16
1.8335	8.71847e-13	0.885871	9.5392e-16
1.8345	8.31656e-13	0.887198	9.09908e-16
1.8355	7.93266e-13	0.888524	8.6787e-16
1.8365	7.566e-13	0.889849	8.2772e-16
1.8375	7.21581e-13	0.891175	7.89377e-16
1.8385	6.88138e-13	0.8925	7.52761e-16
1.8395	6.56203e-13	0.893825	7.17796e-16
1.8405	6.25709e-13	0.89515	6.84411e-16
1.8415	5.96593e-13	0.896474	6.52537e-16
1.8425	5.68794e-13	0.897799	6.22106e-16
1.8435	5.42256e-13	0.899123	5.93056e-16
1.8445	5.16922e-13	0.900446	5.65325e-16
1.8455	4.9274e-13	0.90177	5.38855e-16
1.8465	4.69658e-13	0.903093	5.13592e-16
1.8475	4.47628e-13	0.904416	4.89481e-16
1.8485	4.26603e-13	0.905739	4.66471e-16
1.8495	4.0654e-13	0.907061	4.44514e-16
1.8505	3.87394e-13	0.908383	4.23562e-16
1.8515	3.69126e-13	0.909705	4.03572e-16
1.8525	3.51696e-13	0.911027	3.845e-16
1.8535	3.35068e-13	0.912348	3.66305e-16
1.8545	3.19204e-13	0.913669	3.48948e-16
1.8555	3.04072e-13	0.91499	3.32391e-16
1.8565	2.89638e-13	0.916311	3.166e-16
1.8575	2.7587e-13	0.917631	3.01538e-16
1.8585	2.6274e-13	0.918952	2.87174e-16
1.8595	2.50219e-13	0.920272	2.73477e-16
1.8605	2.38278e-13	0.921591	2.60415e-16
1.8615	2.26892e-13	0.922911	2.47961e-16
1.8625	2.16036e-13	0.92423	2.36087e-16
1.8635	2.05686e-13	0.925549	2.24767e-16
1.8645	1.95818e-13	0.926867	2.13975e-16
1.8655	1.86412e-13	0.928186	2.03688e-16
1.8665	1.77446e-13	0.929504	1.93883e-16
1.8675	1.689e-13	0.930822	1.84537e-16
1.8685	1.60754e-13	0.932139	1.75631e-16
1.8695	1.52992e-13	0.933457	1.67143e-16
1.8705	1.45594e-13	0.934774	1.59054e-16
1.8715	1.38545e-13	0.936091	1.51347e-16
1.8725	1.31829e-13	0.937407	1.44004e-16
1.8735	1.25429e-13	0.938724	1.37008e-16
1.8745	1.19333e-13	0.94004	1.30343e-16
1.8755	1.13525e-13	0.941356	1.23994e-16
1.8765	1.07993e-13	0.942671	1.17947e-16
1.8775	1.02723e-13	0.943987	1.12187e-16
1.8785	9.77039e-14	0.945302	1.06701e-16
1.8795	9.29239e-14	0.946617	1.01476e-16
1.8805	8.83718e-14	0.947931	9.65013e-17
1.8815	8.40371e-14	0.949246	9.1764e-17
1.8825	7.99097e-14	0.95056	8.72533e-17
1.8835	7.59798e-14	0.951874	8.29589e-17
1.8845	7.22384e-14	0.953187	7.88705e-17
1.8855	6.86766e-14	0.954501	7.49785e-17
1.8865	6.5286e-14	0.955814	7.12738e-17
1.8875	6.20587e-14	0.957127	6.77476e-17
1.8885	5.89869e-14	0.958439	6.43915e-17
1.8895	5.60634e-14	0.959752	6.11975e-17
1.8905	5.32811e-14	0.961064	5.81581e-17
1.8915	5.06336e-14	0.962376	5.52659e-17
1.8925	4.81143e-14	0.963687	5.25139e-17
1.8935	4.57173e-14	0.964999	4.98956e-17
1.8945	4.34368e-14	0.96631	4.74047e-17
1.8955	4.12673e-14	0.967621	4.50351e-17
1.8965	3.92034e-14	0.968932	4.2781e-17
1.8975	3.72403e-14	0.970242	4.0637e-17
1.8985	3.53731e-14	0.971552	3.85978e-17
1.8995	3.35972e-14	0.972862	3.66585e-17
1.9005	3.19083e-14	0.974172	3.48142e-17
1.9015	3.03022e-14	0.975481	3.30605e-17
1.9025	2.8775e-14	0.97679	3.1393e-17
1.9035	2.7323e-14	0.978099	2.98075e-17
1.9045	2.59424e-14	0.979408	2.83002e-17
1.9055	2.46299e-14	0.980716	2.68673e-17
1.9065	2.33823e-14	0.982025	2.55052e-17
1.9075	2.21963e-14	0.983333	2.42106e-17
1.9085	2.1069e-14	0.98464	2.298e-17
1.9095	1.99976e-14	0.985948	2.18105e-17
1.9105	1.89794e-14	0.987255	2.06992e-17
1.9115	1.80118e-14	0.988562	1.96431e-17
1.9125	1.70924e-14	0.989869	1.86396e-17
1.9135	1.62188e-14	0.991175	1.76861e-17
1.9145	1.53888e-14	0.992481	1.67803e-17
1.9155	1.46003e-14	0.993787	1.59198e-17
1.9165	1.38512e-14	0.995093	1.51024e-17
1.9175	1.31397e-14	0.996399	1.4326e-17
1.9185	1.24638e-14	0.997704	1.35885e-17
1.9195	1.18219e-14	0.999009	1.28881e-17
1.9205	1.12123e-14	1.00031	1.2223e-17
1.9215	1.06334e-14	1.00162	1.15914e-17
1.9225	1.00837e-14	1.00292	1.09917e-17
1.9235	9.56172e-15	1.00423	1.04223e-17
1.9245	9.06616e-15	1.00553	9.88174e-18
1.9255	8.59569e-15	1.00683	9.36855e-18
1.9265	8.14907e-15	1.00814	8.88139e-18
1.9275	7.72512e-15	1.00944	8.41899e-18
1.9285	7.32272e-15	1.01074	7.9801e-18
1.9295	6.94081e-15	1.01205	7.56358e-18
1.9305	6.57835e-15	1.01335	7.1683e-18
1.9315	6.2344e-15	1.01465	6.7932e-18
1.9325	5.90801e-15	1.01595	6.43729e-18
1.9335	5.59833e-15	1.01725	6.0996e-18
1.9345	5.30451e-15	1.01855	5.77922e-18
1.9355	5.02576e-15	1.01986	5.47529e-18
1.9365	4.76133e-15	1.02116	5.18699e-18
1.9375	4.5105e-15	1.02246	4.91352e-18
1.9385	4.27259e-15	1.02376	4.65415e-18
1.9395	4.04694e-15	1.02506	4.40816e-18
1.9405	3.83294e-15	1.02636	4.17488e-18
1.9415	3.63001e-15	1.02766	3.95368e-18
1.9425	3.43758e-15	1.02896	3.74393e-18
1.9435	3.25513e-15	1.03026	3.54506e-18
1.9445	3.08214e-15	1.03156	3.35652e-18
1.9455	2.91814e-15	1.03285	3.17779e-18
1.9465	2.76268e-15	1.03415	3.00836e-18
1.9475	2.61531e-15	1.03545	2.84777e-18
1.9485	2.47563e-15	1.03675	2.69556e-18
1.9495	2.34325e-15	1.03805	2.5513e-18
1.9505	2.21779e-15	1.03934	2.4146e-18
1.9515	2.0989e-15	1.04064	2.28506e-18
1.9525	1.98625e-15	1.04194	2.16232e-18
1.9535	1.87951e-15	1.04324	2.04603e-18
1.9545	1.77838e-15	1.04453	1.93586e-18
1.9555	1.68258e-15	1.04583	1.83149e-18
1.9565	1.59182e-15	1.04712	1.73263e-18
1.9575	1.50585e-15	1.04842	1.63898e-18
1.9585	1.42443e-15	1.04972	1.55029e-18
1.9595	1.34731e-15	1.05101	1.4663e-18
1.9605	1.27428e-15	1.05231	1.38676e-18
1.9615	1.20512e-15	1.0536	1.31144e-18
1.9625	1.13963e-15	1.0549	1.24012e-18
1.9635	1.07763e-15	1.05619	1.1726e-18
1.9645	1.01893e-15	1.05749	1.10868e-18
1.9655	9.63358e-16	1.05878	1.04816e-18
1.9665	9.10752e-16	1.06007	9.90883e-19
1.9675	8.60958e-16	1.06137	9.36667e-19
1.9685	8.13829e-16	1.06266	8.85354e-19
1.9695	7.69225e-16	1.06395	8.36794e-19
1.9705	7.27014e-16	1.06525	7.9084e-19
1.9715	6.87071e-16	1.06654	7.47357e-19
1.9725	6.49276e-16	1.06783	7.06215e-19
1.9735	6.13516e-16	1.06912	6.6729e-19
1.9745	5.79685e-16	1.07041	6.30466e-19
1.9755	5.4768e-16	1.07171	5.95632e-19
1.9765	5.17406e-16	1.073	5.62682e-19
1.9775	4.8877e-16	1.07429	5.31517e-19
1.9785	4.61686e-16	1.07558	5.02042e-19
1.9795	4.36072e-16	1.07687	4.74168e-19
1.9805	4.11849e-16	1.07816	4.4781e-19
1.9815	3.88945e-16	1.07945	4.22886e-19
1.9825	3.67287e-16	1.08074	3.99321e-19
1.9835	3.46811e-16	1.08203	3.77043e-19
1.9845	3.27453e-16	1.08332	3.55982e-19
1.9855	3.09154e-16	1.08461	3.36073e-19
1.9865	2.91856e-16	1.0859	3.17255e-19
1.9875	2.75506e-16	1.08719	2.99469e-19
1.9885	2.60053e-16	1.08848	2.8266e-19
1.9895	2.4545e-16	1.08976	2.66775e-19
1.9905	2.3165e-16	1.09105	2.51765e-19
1.9915	2.1861e-16	1.09234	2.37582e-19
1.9925	2.0629e-16	1.09363	2.24183e-19
1.9935	1.94649e-16	1.09492	2.11523e-19
1.9945	1.83653e-16	1.0962	1.99565e-19
1.9955	1.73263e-16	1.09749	1.88266e-19
1.9965	1.63459e-16	1.09878	1.77606e-19
1.9975	1.5416e-16	1.10006	1.67494e-19
1.9985	1.45525e-16	1.10135	1.58105e-19
1.9995	1.35311e-16	1.10293	1.47031e-19
